<?xml version="1.0" encoding="UTF-8" standalone="no"?>
<!DOCTYPE svg PUBLIC "-//W3C//DTD SVG 1.1//EN"
 "http://www.w3.org/Graphics/SVG/1.1/DTD/svg11.dtd">
<!-- Generated by graphviz version 2.43.0 (0)
 -->
<!-- Title: %3 Pages: 1 -->
<svg width="1790pt" height="476pt"
 viewBox="0.00 0.00 1789.66 476.00" xmlns="http://www.w3.org/2000/svg" xmlns:xlink="http://www.w3.org/1999/xlink">
<g id="graph0" class="graph" transform="scale(1 1) rotate(0) translate(4 472)">
<title>%3</title>
<polygon fill="white" stroke="transparent" points="-4,4 -4,-472 1785.66,-472 1785.66,4 -4,4"/>
<!-- [root] aws_eks_fargate_profile.fargate (expand) -->
<g id="node1" class="node">
<title>[root] aws_eks_fargate_profile.fargate (expand)</title>
<polygon fill="none" stroke="black" points="557.38,-252 315.38,-252 315.38,-216 557.38,-216 557.38,-252"/>
<text text-anchor="middle" x="436.38" y="-230.3" font-family="Times,serif" font-size="14.00">aws_eks_fargate_profile.fargate</text>
</g>
<!-- [root] aws_iam_role.fargate (expand) -->
<g id="node2" class="node">
<title>[root] aws_iam_role.fargate (expand)</title>
<polygon fill="none" stroke="black" points="971.38,-180 803.38,-180 803.38,-144 971.38,-144 971.38,-180"/>
<text text-anchor="middle" x="887.38" y="-158.3" font-family="Times,serif" font-size="14.00">aws_iam_role.fargate</text>
</g>
<!-- [root] aws_eks_fargate_profile.fargate (expand)&#45;&gt;[root] aws_iam_role.fargate (expand) -->
<g id="edge1" class="edge">
<title>[root] aws_eks_fargate_profile.fargate (expand)&#45;&gt;[root] aws_iam_role.fargate (expand)</title>
<path fill="none" stroke="black" d="M546.13,-215.97C621.71,-204.23 721.09,-188.81 793.1,-177.63"/>
<polygon fill="black" stroke="black" points="793.72,-181.08 803.07,-176.09 792.65,-174.16 793.72,-181.08"/>
</g>
<!-- [root] var.DEPENDS_ON_MODULE -->
<g id="node12" class="node">
<title>[root] var.DEPENDS_ON_MODULE</title>
<polygon fill="none" stroke="black" points="541.88,-180 324.88,-180 324.88,-144 547.88,-144 547.88,-174 541.88,-180"/>
<polyline fill="none" stroke="black" points="541.88,-180 541.88,-174 "/>
<polyline fill="none" stroke="black" points="547.88,-174 541.88,-174 "/>
<text text-anchor="middle" x="436.38" y="-158.3" font-family="Times,serif" font-size="14.00">var.DEPENDS_ON_MODULE</text>
</g>
<!-- [root] aws_eks_fargate_profile.fargate (expand)&#45;&gt;[root] var.DEPENDS_ON_MODULE -->
<g id="edge2" class="edge">
<title>[root] aws_eks_fargate_profile.fargate (expand)&#45;&gt;[root] var.DEPENDS_ON_MODULE</title>
<path fill="none" stroke="black" d="M436.38,-215.7C436.38,-207.98 436.38,-198.71 436.38,-190.11"/>
<polygon fill="black" stroke="black" points="439.88,-190.1 436.38,-180.1 432.88,-190.1 439.88,-190.1"/>
</g>
<!-- [root] var.LABELS -->
<g id="node14" class="node">
<title>[root] var.LABELS</title>
<polygon fill="none" stroke="black" points="660.88,-180 565.88,-180 565.88,-144 666.88,-144 666.88,-174 660.88,-180"/>
<polyline fill="none" stroke="black" points="660.88,-180 660.88,-174 "/>
<polyline fill="none" stroke="black" points="666.88,-174 660.88,-174 "/>
<text text-anchor="middle" x="616.38" y="-158.3" font-family="Times,serif" font-size="14.00">var.LABELS</text>
</g>
<!-- [root] aws_eks_fargate_profile.fargate (expand)&#45;&gt;[root] var.LABELS -->
<g id="edge3" class="edge">
<title>[root] aws_eks_fargate_profile.fargate (expand)&#45;&gt;[root] var.LABELS</title>
<path fill="none" stroke="black" d="M480.41,-215.88C505.35,-206.18 536.72,-193.98 563.04,-183.74"/>
<polygon fill="black" stroke="black" points="564.44,-186.95 572.49,-180.07 561.9,-180.43 564.44,-186.95"/>
</g>
<!-- [root] var.SUBNET_IDS -->
<g id="node16" class="node">
<title>[root] var.SUBNET_IDS</title>
<polygon fill="none" stroke="black" points="300.38,-180 166.38,-180 166.38,-144 306.38,-144 306.38,-174 300.38,-180"/>
<polyline fill="none" stroke="black" points="300.38,-180 300.38,-174 "/>
<polyline fill="none" stroke="black" points="306.38,-174 300.38,-174 "/>
<text text-anchor="middle" x="236.38" y="-158.3" font-family="Times,serif" font-size="14.00">var.SUBNET_IDS</text>
</g>
<!-- [root] aws_eks_fargate_profile.fargate (expand)&#45;&gt;[root] var.SUBNET_IDS -->
<g id="edge4" class="edge">
<title>[root] aws_eks_fargate_profile.fargate (expand)&#45;&gt;[root] var.SUBNET_IDS</title>
<path fill="none" stroke="black" d="M387.71,-215.97C359.77,-206.19 324.49,-193.84 295.02,-183.52"/>
<polygon fill="black" stroke="black" points="295.86,-180.11 285.27,-180.11 293.55,-186.72 295.86,-180.11"/>
</g>
<!-- [root] data.aws_iam_policy_document.fargate_role (expand) -->
<g id="node4" class="node">
<title>[root] data.aws_iam_policy_document.fargate_role (expand)</title>
<polygon fill="none" stroke="black" points="490.38,-108 160.38,-108 160.38,-72 490.38,-72 490.38,-108"/>
<text text-anchor="middle" x="325.38" y="-86.3" font-family="Times,serif" font-size="14.00">data.aws_iam_policy_document.fargate_role</text>
</g>
<!-- [root] aws_iam_role.fargate (expand)&#45;&gt;[root] data.aws_iam_policy_document.fargate_role (expand) -->
<g id="edge5" class="edge">
<title>[root] aws_iam_role.fargate (expand)&#45;&gt;[root] data.aws_iam_policy_document.fargate_role (expand)</title>
<path fill="none" stroke="black" d="M803.24,-150.52C715.88,-139.64 577.51,-122.4 472.09,-109.27"/>
<polygon fill="black" stroke="black" points="472.36,-105.78 462,-108.02 471.49,-112.73 472.36,-105.78"/>
</g>
<!-- [root] var.CLUSTER_NAME -->
<g id="node11" class="node">
<title>[root] var.CLUSTER_NAME</title>
<polygon fill="none" stroke="black" points="669.88,-108 508.88,-108 508.88,-72 675.88,-72 675.88,-102 669.88,-108"/>
<polyline fill="none" stroke="black" points="669.88,-108 669.88,-102 "/>
<polyline fill="none" stroke="black" points="675.88,-102 669.88,-102 "/>
<text text-anchor="middle" x="592.38" y="-86.3" font-family="Times,serif" font-size="14.00">var.CLUSTER_NAME</text>
</g>
<!-- [root] aws_iam_role.fargate (expand)&#45;&gt;[root] var.CLUSTER_NAME -->
<g id="edge8" class="edge">
<title>[root] aws_iam_role.fargate (expand)&#45;&gt;[root] var.CLUSTER_NAME</title>
<path fill="none" stroke="black" d="M815.59,-143.97C772.86,-133.83 718.5,-120.93 674.12,-110.4"/>
<polygon fill="black" stroke="black" points="674.77,-106.95 664.24,-108.05 673.16,-113.76 674.77,-106.95"/>
</g>
<!-- [root] var.FARGATE_NAMESPACE -->
<g id="node13" class="node">
<title>[root] var.FARGATE_NAMESPACE</title>
<polygon fill="none" stroke="black" points="900.88,-108 693.88,-108 693.88,-72 906.88,-72 906.88,-102 900.88,-108"/>
<polyline fill="none" stroke="black" points="900.88,-108 900.88,-102 "/>
<polyline fill="none" stroke="black" points="906.88,-102 900.88,-102 "/>
<text text-anchor="middle" x="800.38" y="-86.3" font-family="Times,serif" font-size="14.00">var.FARGATE_NAMESPACE</text>
</g>
<!-- [root] aws_iam_role.fargate (expand)&#45;&gt;[root] var.FARGATE_NAMESPACE -->
<g id="edge9" class="edge">
<title>[root] aws_iam_role.fargate (expand)&#45;&gt;[root] var.FARGATE_NAMESPACE</title>
<path fill="none" stroke="black" d="M865.88,-143.7C854.92,-134.88 841.44,-124.03 829.56,-114.47"/>
<polygon fill="black" stroke="black" points="831.63,-111.65 821.64,-108.1 827.24,-117.1 831.63,-111.65"/>
</g>
<!-- [root] var.SUFFIX -->
<g id="node17" class="node">
<title>[root] var.SUFFIX</title>
<polygon fill="none" stroke="black" points="1017.88,-108 924.88,-108 924.88,-72 1023.88,-72 1023.88,-102 1017.88,-108"/>
<polyline fill="none" stroke="black" points="1017.88,-108 1017.88,-102 "/>
<polyline fill="none" stroke="black" points="1023.88,-102 1017.88,-102 "/>
<text text-anchor="middle" x="974.38" y="-86.3" font-family="Times,serif" font-size="14.00">var.SUFFIX</text>
</g>
<!-- [root] aws_iam_role.fargate (expand)&#45;&gt;[root] var.SUFFIX -->
<g id="edge10" class="edge">
<title>[root] aws_iam_role.fargate (expand)&#45;&gt;[root] var.SUFFIX</title>
<path fill="none" stroke="black" d="M908.89,-143.7C919.84,-134.88 933.33,-124.03 945.21,-114.47"/>
<polygon fill="black" stroke="black" points="947.53,-117.1 953.12,-108.1 943.14,-111.65 947.53,-117.1"/>
</g>
<!-- [root] local.default_tags (expand) -->
<g id="node19" class="node">
<title>[root] local.default_tags (expand)</title>
<ellipse fill="none" stroke="black" cx="1206.38" cy="-90" rx="164.37" ry="18"/>
<text text-anchor="middle" x="1206.38" y="-86.3" font-family="Times,serif" font-size="14.00">[root] local.default_tags (expand)</text>
</g>
<!-- [root] aws_iam_role.fargate (expand)&#45;&gt;[root] local.default_tags (expand) -->
<g id="edge6" class="edge">
<title>[root] aws_iam_role.fargate (expand)&#45;&gt;[root] local.default_tags (expand)</title>
<path fill="none" stroke="black" d="M965.01,-143.97C1014.01,-133.21 1077.15,-119.36 1126.57,-108.51"/>
<polygon fill="black" stroke="black" points="1127.56,-111.88 1136.58,-106.32 1126.06,-105.04 1127.56,-111.88"/>
</g>
<!-- [root] local.environment_name (expand) -->
<g id="node20" class="node">
<title>[root] local.environment_name (expand)</title>
<ellipse fill="none" stroke="black" cx="1585.38" cy="-90" rx="196.07" ry="18"/>
<text text-anchor="middle" x="1585.38" y="-86.3" font-family="Times,serif" font-size="14.00">[root] local.environment_name (expand)</text>
</g>
<!-- [root] aws_iam_role.fargate (expand)&#45;&gt;[root] local.environment_name (expand) -->
<g id="edge7" class="edge">
<title>[root] aws_iam_role.fargate (expand)&#45;&gt;[root] local.environment_name (expand)</title>
<path fill="none" stroke="black" d="M971.58,-152.56C1089.84,-140.7 1306.53,-118.96 1448.24,-104.75"/>
<polygon fill="black" stroke="black" points="1448.71,-108.22 1458.31,-103.74 1448.02,-101.26 1448.71,-108.22"/>
</g>
<!-- [root] aws_iam_role_policy_attachment.attachment_fargate (expand) -->
<g id="node3" class="node">
<title>[root] aws_iam_role_policy_attachment.attachment_fargate (expand)</title>
<polygon fill="none" stroke="black" points="1283.38,-324 889.38,-324 889.38,-288 1283.38,-288 1283.38,-324"/>
<text text-anchor="middle" x="1086.38" y="-302.3" font-family="Times,serif" font-size="14.00">aws_iam_role_policy_attachment.attachment_fargate</text>
</g>
<!-- [root] aws_iam_role_policy_attachment.attachment_fargate (expand)&#45;&gt;[root] aws_iam_role.fargate (expand) -->
<g id="edge11" class="edge">
<title>[root] aws_iam_role_policy_attachment.attachment_fargate (expand)&#45;&gt;[root] aws_iam_role.fargate (expand)</title>
<path fill="none" stroke="black" d="M1121.06,-287.83C1134.69,-279.13 1148.85,-267.15 1156.38,-252 1163.5,-237.67 1166.54,-228.36 1156.38,-216 1134.3,-189.15 1049.85,-175.68 981.38,-169.07"/>
<polygon fill="black" stroke="black" points="981.69,-165.58 971.4,-168.14 981.04,-172.55 981.69,-165.58"/>
</g>
<!-- [root] provider[&quot;registry.terraform.io/hashicorp/aws&quot;] -->
<g id="node10" class="node">
<title>[root] provider[&quot;registry.terraform.io/hashicorp/aws&quot;]</title>
<polygon fill="none" stroke="black" points="325.38,-36 0.12,-18 325.38,0 650.65,-18 325.38,-36"/>
<text text-anchor="middle" x="325.38" y="-14.3" font-family="Times,serif" font-size="14.00">provider[&quot;registry.terraform.io/hashicorp/aws&quot;]</text>
</g>
<!-- [root] data.aws_iam_policy_document.fargate_role (expand)&#45;&gt;[root] provider[&quot;registry.terraform.io/hashicorp/aws&quot;] -->
<g id="edge12" class="edge">
<title>[root] data.aws_iam_policy_document.fargate_role (expand)&#45;&gt;[root] provider[&quot;registry.terraform.io/hashicorp/aws&quot;]</title>
<path fill="none" stroke="black" d="M325.38,-71.7C325.38,-63.98 325.38,-54.71 325.38,-46.11"/>
<polygon fill="black" stroke="black" points="328.88,-46.1 325.38,-36.1 321.88,-46.1 328.88,-46.1"/>
</g>
<!-- [root] output.eks_fargate_profile_arn -->
<g id="node5" class="node">
<title>[root] output.eks_fargate_profile_arn</title>
<polygon fill="none" stroke="black" points="547.38,-324 319.38,-324 319.38,-288 553.38,-288 553.38,-318 547.38,-324"/>
<polyline fill="none" stroke="black" points="547.38,-324 547.38,-318 "/>
<polyline fill="none" stroke="black" points="553.38,-318 547.38,-318 "/>
<text text-anchor="middle" x="436.38" y="-302.3" font-family="Times,serif" font-size="14.00">output.eks_fargate_profile_arn</text>
</g>
<!-- [root] output.eks_fargate_profile_arn&#45;&gt;[root] aws_eks_fargate_profile.fargate (expand) -->
<g id="edge22" class="edge">
<title>[root] output.eks_fargate_profile_arn&#45;&gt;[root] aws_eks_fargate_profile.fargate (expand)</title>
<path fill="none" stroke="black" d="M436.38,-287.7C436.38,-279.98 436.38,-270.71 436.38,-262.11"/>
<polygon fill="black" stroke="black" points="439.88,-262.1 436.38,-252.1 432.88,-262.1 439.88,-262.1"/>
</g>
<!-- [root] output.eks_fargate_profile_id -->
<g id="node6" class="node">
<title>[root] output.eks_fargate_profile_id</title>
<polygon fill="none" stroke="black" points="789.38,-324 571.38,-324 571.38,-288 795.38,-288 795.38,-318 789.38,-324"/>
<polyline fill="none" stroke="black" points="789.38,-324 789.38,-318 "/>
<polyline fill="none" stroke="black" points="795.38,-318 789.38,-318 "/>
<text text-anchor="middle" x="683.38" y="-302.3" font-family="Times,serif" font-size="14.00">output.eks_fargate_profile_id</text>
</g>
<!-- [root] output.eks_fargate_profile_id&#45;&gt;[root] aws_eks_fargate_profile.fargate (expand) -->
<g id="edge23" class="edge">
<title>[root] output.eks_fargate_profile_id&#45;&gt;[root] aws_eks_fargate_profile.fargate (expand)</title>
<path fill="none" stroke="black" d="M623.27,-287.97C588.01,-277.97 543.29,-265.3 506.44,-254.85"/>
<polygon fill="black" stroke="black" points="507.33,-251.47 496.76,-252.11 505.43,-258.2 507.33,-251.47"/>
</g>
<!-- [root] output.eks_fargate_profile_role_arn -->
<g id="node7" class="node">
<title>[root] output.eks_fargate_profile_role_arn</title>
<polygon fill="none" stroke="black" points="838.88,-252 575.88,-252 575.88,-216 844.88,-216 844.88,-246 838.88,-252"/>
<polyline fill="none" stroke="black" points="838.88,-252 838.88,-246 "/>
<polyline fill="none" stroke="black" points="844.88,-246 838.88,-246 "/>
<text text-anchor="middle" x="710.38" y="-230.3" font-family="Times,serif" font-size="14.00">output.eks_fargate_profile_role_arn</text>
</g>
<!-- [root] output.eks_fargate_profile_role_arn&#45;&gt;[root] aws_iam_role.fargate (expand) -->
<g id="edge24" class="edge">
<title>[root] output.eks_fargate_profile_role_arn&#45;&gt;[root] aws_iam_role.fargate (expand)</title>
<path fill="none" stroke="black" d="M753.68,-215.88C778.09,-206.22 808.78,-194.09 834.59,-183.88"/>
<polygon fill="black" stroke="black" points="836.21,-187 844.22,-180.07 833.64,-180.49 836.21,-187"/>
</g>
<!-- [root] output.eks_fargate_profile_role_name -->
<g id="node8" class="node">
<title>[root] output.eks_fargate_profile_role_name</title>
<polygon fill="none" stroke="black" points="1141.38,-252 863.38,-252 863.38,-216 1147.38,-216 1147.38,-246 1141.38,-252"/>
<polyline fill="none" stroke="black" points="1141.38,-252 1141.38,-246 "/>
<polyline fill="none" stroke="black" points="1147.38,-246 1141.38,-246 "/>
<text text-anchor="middle" x="1005.38" y="-230.3" font-family="Times,serif" font-size="14.00">output.eks_fargate_profile_role_name</text>
</g>
<!-- [root] output.eks_fargate_profile_role_name&#45;&gt;[root] aws_iam_role.fargate (expand) -->
<g id="edge25" class="edge">
<title>[root] output.eks_fargate_profile_role_name&#45;&gt;[root] aws_iam_role.fargate (expand)</title>
<path fill="none" stroke="black" d="M976.52,-215.88C961.09,-206.72 941.9,-195.34 925.28,-185.48"/>
<polygon fill="black" stroke="black" points="926.74,-182.28 916.36,-180.19 923.17,-188.3 926.74,-182.28"/>
</g>
<!-- [root] output.eks_fargate_profile_status -->
<g id="node9" class="node">
<title>[root] output.eks_fargate_profile_status</title>
<polygon fill="none" stroke="black" points="295.38,-324 47.38,-324 47.38,-288 301.38,-288 301.38,-318 295.38,-324"/>
<polyline fill="none" stroke="black" points="295.38,-324 295.38,-318 "/>
<polyline fill="none" stroke="black" points="301.38,-318 295.38,-318 "/>
<text text-anchor="middle" x="174.38" y="-302.3" font-family="Times,serif" font-size="14.00">output.eks_fargate_profile_status</text>
</g>
<!-- [root] output.eks_fargate_profile_status&#45;&gt;[root] aws_eks_fargate_profile.fargate (expand) -->
<g id="edge26" class="edge">
<title>[root] output.eks_fargate_profile_status&#45;&gt;[root] aws_eks_fargate_profile.fargate (expand)</title>
<path fill="none" stroke="black" d="M238.14,-287.97C275.7,-277.93 323.38,-265.19 362.57,-254.72"/>
<polygon fill="black" stroke="black" points="363.58,-258.07 372.34,-252.11 361.77,-251.31 363.58,-258.07"/>
</g>
<!-- [root] var.MODULE_VERSION -->
<g id="node15" class="node">
<title>[root] var.MODULE_VERSION</title>
<polygon fill="none" stroke="black" points="1293.88,-36 1112.88,-36 1112.88,0 1299.88,0 1299.88,-30 1293.88,-36"/>
<polyline fill="none" stroke="black" points="1293.88,-36 1293.88,-30 "/>
<polyline fill="none" stroke="black" points="1299.88,-30 1293.88,-30 "/>
<text text-anchor="middle" x="1206.38" y="-14.3" font-family="Times,serif" font-size="14.00">var.MODULE_VERSION</text>
</g>
<!-- [root] var.globals -->
<g id="node18" class="node">
<title>[root] var.globals</title>
<polygon fill="none" stroke="black" points="1516.38,-36 1428.38,-36 1428.38,0 1522.38,0 1522.38,-30 1516.38,-36"/>
<polyline fill="none" stroke="black" points="1516.38,-36 1516.38,-30 "/>
<polyline fill="none" stroke="black" points="1522.38,-30 1516.38,-30 "/>
<text text-anchor="middle" x="1475.38" y="-14.3" font-family="Times,serif" font-size="14.00">var.globals</text>
</g>
<!-- [root] local.default_tags (expand)&#45;&gt;[root] var.MODULE_VERSION -->
<g id="edge13" class="edge">
<title>[root] local.default_tags (expand)&#45;&gt;[root] var.MODULE_VERSION</title>
<path fill="none" stroke="black" d="M1206.38,-71.7C1206.38,-63.98 1206.38,-54.71 1206.38,-46.11"/>
<polygon fill="black" stroke="black" points="1209.88,-46.1 1206.38,-36.1 1202.88,-46.1 1209.88,-46.1"/>
</g>
<!-- [root] local.default_tags (expand)&#45;&gt;[root] var.globals -->
<g id="edge14" class="edge">
<title>[root] local.default_tags (expand)&#45;&gt;[root] var.globals</title>
<path fill="none" stroke="black" d="M1267.09,-73.2C1312.47,-61.39 1374.08,-45.36 1418.51,-33.8"/>
<polygon fill="black" stroke="black" points="1419.48,-37.16 1428.28,-31.26 1417.72,-30.39 1419.48,-37.16"/>
</g>
<!-- [root] local.environment_name (expand)&#45;&gt;[root] var.globals -->
<g id="edge15" class="edge">
<title>[root] local.environment_name (expand)&#45;&gt;[root] var.globals</title>
<path fill="none" stroke="black" d="M1558.75,-72.05C1544.4,-62.92 1526.5,-51.53 1510.97,-41.65"/>
<polygon fill="black" stroke="black" points="1512.46,-38.45 1502.15,-36.03 1508.7,-44.35 1512.46,-38.45"/>
</g>
<!-- [root] meta.count&#45;boundary (EachMode fixup) -->
<g id="node21" class="node">
<title>[root] meta.count&#45;boundary (EachMode fixup)</title>
<ellipse fill="none" stroke="black" cx="730.38" cy="-378" rx="222.86" ry="18"/>
<text text-anchor="middle" x="730.38" y="-374.3" font-family="Times,serif" font-size="14.00">[root] meta.count&#45;boundary (EachMode fixup)</text>
</g>
<!-- [root] meta.count&#45;boundary (EachMode fixup)&#45;&gt;[root] aws_iam_role_policy_attachment.attachment_fargate (expand) -->
<g id="edge16" class="edge">
<title>[root] meta.count&#45;boundary (EachMode fixup)&#45;&gt;[root] aws_iam_role_policy_attachment.attachment_fargate (expand)</title>
<path fill="none" stroke="black" d="M810.72,-361.2C863.82,-350.76 933.73,-337.02 989.85,-325.98"/>
<polygon fill="black" stroke="black" points="990.67,-329.39 999.8,-324.02 989.32,-322.52 990.67,-329.39"/>
</g>
<!-- [root] meta.count&#45;boundary (EachMode fixup)&#45;&gt;[root] output.eks_fargate_profile_arn -->
<g id="edge17" class="edge">
<title>[root] meta.count&#45;boundary (EachMode fixup)&#45;&gt;[root] output.eks_fargate_profile_arn</title>
<path fill="none" stroke="black" d="M662.56,-360.85C619.43,-350.58 563.34,-337.23 517.8,-326.39"/>
<polygon fill="black" stroke="black" points="518.5,-322.95 507.96,-324.04 516.88,-329.76 518.5,-322.95"/>
</g>
<!-- [root] meta.count&#45;boundary (EachMode fixup)&#45;&gt;[root] output.eks_fargate_profile_id -->
<g id="edge18" class="edge">
<title>[root] meta.count&#45;boundary (EachMode fixup)&#45;&gt;[root] output.eks_fargate_profile_id</title>
<path fill="none" stroke="black" d="M718.76,-359.7C713.24,-351.47 706.53,-341.48 700.45,-332.42"/>
<polygon fill="black" stroke="black" points="703.35,-330.46 694.87,-324.1 697.53,-334.36 703.35,-330.46"/>
</g>
<!-- [root] meta.count&#45;boundary (EachMode fixup)&#45;&gt;[root] output.eks_fargate_profile_role_arn -->
<g id="edge19" class="edge">
<title>[root] meta.count&#45;boundary (EachMode fixup)&#45;&gt;[root] output.eks_fargate_profile_role_arn</title>
<path fill="none" stroke="black" d="M767.38,-360.03C781.66,-351.42 796.44,-339.46 804.38,-324 811.69,-309.77 812.45,-301.82 804.38,-288 796.63,-274.73 784.19,-264.52 770.87,-256.78"/>
<polygon fill="black" stroke="black" points="772.5,-253.68 762.03,-252.04 769.19,-259.85 772.5,-253.68"/>
</g>
<!-- [root] meta.count&#45;boundary (EachMode fixup)&#45;&gt;[root] output.eks_fargate_profile_role_name -->
<g id="edge20" class="edge">
<title>[root] meta.count&#45;boundary (EachMode fixup)&#45;&gt;[root] output.eks_fargate_profile_role_name</title>
<path fill="none" stroke="black" d="M759.98,-359.97C777.82,-349.65 800.97,-336.17 821.38,-324 847.77,-308.27 853.06,-302.03 880.38,-288 903.13,-276.32 929.05,-265.02 951.37,-255.87"/>
<polygon fill="black" stroke="black" points="952.74,-259.09 960.69,-252.09 950.11,-252.61 952.74,-259.09"/>
</g>
<!-- [root] meta.count&#45;boundary (EachMode fixup)&#45;&gt;[root] output.eks_fargate_profile_status -->
<g id="edge21" class="edge">
<title>[root] meta.count&#45;boundary (EachMode fixup)&#45;&gt;[root] output.eks_fargate_profile_status</title>
<path fill="none" stroke="black" d="M615.52,-362.54C527.31,-351.43 405.19,-336.06 311.8,-324.3"/>
<polygon fill="black" stroke="black" points="312.07,-320.81 301.71,-323.03 311.2,-327.75 312.07,-320.81"/>
</g>
<!-- [root] provider[&quot;registry.terraform.io/hashicorp/aws&quot;] (close) -->
<g id="node22" class="node">
<title>[root] provider[&quot;registry.terraform.io/hashicorp/aws&quot;] (close)</title>
<ellipse fill="none" stroke="black" cx="1263.38" cy="-378" rx="291.65" ry="18"/>
<text text-anchor="middle" x="1263.38" y="-374.3" font-family="Times,serif" font-size="14.00">[root] provider[&quot;registry.terraform.io/hashicorp/aws&quot;] (close)</text>
</g>
<!-- [root] provider[&quot;registry.terraform.io/hashicorp/aws&quot;] (close)&#45;&gt;[root] aws_eks_fargate_profile.fargate (expand) -->
<g id="edge27" class="edge">
<title>[root] provider[&quot;registry.terraform.io/hashicorp/aws&quot;] (close)&#45;&gt;[root] aws_eks_fargate_profile.fargate (expand)</title>
<path fill="none" stroke="black" d="M1277.98,-359.69C1292.83,-339.93 1311.2,-307.78 1292.38,-288 1265.79,-260.06 664.44,-255.95 567.64,-251.75"/>
<polygon fill="black" stroke="black" points="567.63,-248.25 557.44,-251.16 567.22,-255.23 567.63,-248.25"/>
</g>
<!-- [root] provider[&quot;registry.terraform.io/hashicorp/aws&quot;] (close)&#45;&gt;[root] aws_iam_role_policy_attachment.attachment_fargate (expand) -->
<g id="edge28" class="edge">
<title>[root] provider[&quot;registry.terraform.io/hashicorp/aws&quot;] (close)&#45;&gt;[root] aws_iam_role_policy_attachment.attachment_fargate (expand)</title>
<path fill="none" stroke="black" d="M1220.53,-360.05C1195.93,-350.33 1164.85,-338.03 1138.8,-327.73"/>
<polygon fill="black" stroke="black" points="1140.03,-324.45 1129.45,-324.03 1137.46,-330.96 1140.03,-324.45"/>
</g>
<!-- [root] root -->
<g id="node23" class="node">
<title>[root] root</title>
<ellipse fill="none" stroke="black" cx="996.38" cy="-450" rx="58.49" ry="18"/>
<text text-anchor="middle" x="996.38" y="-446.3" font-family="Times,serif" font-size="14.00">[root] root</text>
</g>
<!-- [root] root&#45;&gt;[root] meta.count&#45;boundary (EachMode fixup) -->
<g id="edge29" class="edge">
<title>[root] root&#45;&gt;[root] meta.count&#45;boundary (EachMode fixup)</title>
<path fill="none" stroke="black" d="M953.35,-437.68C912.63,-426.96 850.73,-410.67 802.48,-397.97"/>
<polygon fill="black" stroke="black" points="803.27,-394.56 792.71,-395.4 801.49,-401.33 803.27,-394.56"/>
</g>
<!-- [root] root&#45;&gt;[root] provider[&quot;registry.terraform.io/hashicorp/aws&quot;] (close) -->
<g id="edge30" class="edge">
<title>[root] root&#45;&gt;[root] provider[&quot;registry.terraform.io/hashicorp/aws&quot;] (close)</title>
<path fill="none" stroke="black" d="M1039.28,-437.75C1079.89,-427.11 1141.69,-410.9 1190.11,-398.21"/>
<polygon fill="black" stroke="black" points="1191.13,-401.56 1199.92,-395.64 1189.36,-394.79 1191.13,-401.56"/>
</g>
</g>
</svg>
