<?xml version="1.0" encoding="UTF-8" standalone="no"?>
<!DOCTYPE svg PUBLIC "-//W3C//DTD SVG 1.1//EN"
 "http://www.w3.org/Graphics/SVG/1.1/DTD/svg11.dtd">
<!-- Generated by graphviz version 2.43.0 (0)
 -->
<!-- Title: %3 Pages: 1 -->
<svg width="6413pt" height="620pt"
 viewBox="0.00 0.00 6412.73 620.00" xmlns="http://www.w3.org/2000/svg" xmlns:xlink="http://www.w3.org/1999/xlink">
<g id="graph0" class="graph" transform="scale(1 1) rotate(0) translate(4 616)">
<title>%3</title>
<polygon fill="white" stroke="transparent" points="-4,4 -4,-616 6408.73,-616 6408.73,4 -4,4"/>
<!-- [root] aws_autoscaling_group.eks_node (expand) -->
<g id="node1" class="node">
<title>[root] aws_autoscaling_group.eks_node (expand)</title>
<polygon fill="none" stroke="black" points="2183.5,-396 1932.5,-396 1932.5,-360 2183.5,-360 2183.5,-396"/>
<text text-anchor="middle" x="2058" y="-374.3" font-family="Times,serif" font-size="14.00">aws_autoscaling_group.eks_node</text>
</g>
<!-- [root] aws_launch_template.eks_node (expand) -->
<g id="node5" class="node">
<title>[root] aws_launch_template.eks_node (expand)</title>
<polygon fill="none" stroke="black" points="3591.5,-324 3352.5,-324 3352.5,-288 3591.5,-288 3591.5,-324"/>
<text text-anchor="middle" x="3472" y="-302.3" font-family="Times,serif" font-size="14.00">aws_launch_template.eks_node</text>
</g>
<!-- [root] aws_autoscaling_group.eks_node (expand)&#45;&gt;[root] aws_launch_template.eks_node (expand) -->
<g id="edge1" class="edge">
<title>[root] aws_autoscaling_group.eks_node (expand)&#45;&gt;[root] aws_launch_template.eks_node (expand)</title>
<path fill="none" stroke="black" d="M2183.74,-375.61C2412.41,-372.23 2911.76,-361.03 3342.31,-324.1"/>
<polygon fill="black" stroke="black" points="3342.8,-327.57 3352.46,-323.22 3342.2,-320.6 3342.8,-327.57"/>
</g>
<!-- [root] var.ASG_COOLDOWN_PERIOD -->
<g id="node16" class="node">
<title>[root] var.ASG_COOLDOWN_PERIOD</title>
<polygon fill="none" stroke="black" points="2772,-324 2542,-324 2542,-288 2778,-288 2778,-318 2772,-324"/>
<polyline fill="none" stroke="black" points="2772,-324 2772,-318 "/>
<polyline fill="none" stroke="black" points="2778,-318 2772,-318 "/>
<text text-anchor="middle" x="2660" y="-302.3" font-family="Times,serif" font-size="14.00">var.ASG_COOLDOWN_PERIOD</text>
</g>
<!-- [root] aws_autoscaling_group.eks_node (expand)&#45;&gt;[root] var.ASG_COOLDOWN_PERIOD -->
<g id="edge2" class="edge">
<title>[root] aws_autoscaling_group.eks_node (expand)&#45;&gt;[root] var.ASG_COOLDOWN_PERIOD</title>
<path fill="none" stroke="black" d="M2183.6,-363.75C2276.88,-353.72 2407.51,-339.31 2531.64,-324.15"/>
<polygon fill="black" stroke="black" points="2532.21,-327.61 2541.71,-322.92 2531.36,-320.66 2532.21,-327.61"/>
</g>
<!-- [root] var.ASG_CUSTOM_TAGS -->
<g id="node17" class="node">
<title>[root] var.ASG_CUSTOM_TAGS</title>
<polygon fill="none" stroke="black" points="2983.5,-324 2796.5,-324 2796.5,-288 2989.5,-288 2989.5,-318 2983.5,-324"/>
<polyline fill="none" stroke="black" points="2983.5,-324 2983.5,-318 "/>
<polyline fill="none" stroke="black" points="2989.5,-318 2983.5,-318 "/>
<text text-anchor="middle" x="2893" y="-302.3" font-family="Times,serif" font-size="14.00">var.ASG_CUSTOM_TAGS</text>
</g>
<!-- [root] aws_autoscaling_group.eks_node (expand)&#45;&gt;[root] var.ASG_CUSTOM_TAGS -->
<g id="edge3" class="edge">
<title>[root] aws_autoscaling_group.eks_node (expand)&#45;&gt;[root] var.ASG_CUSTOM_TAGS</title>
<path fill="none" stroke="black" d="M2183.76,-371.17C2327.1,-363.76 2568.58,-349 2786.27,-324.02"/>
<polygon fill="black" stroke="black" points="2786.75,-327.49 2796.29,-322.86 2785.95,-320.54 2786.75,-327.49"/>
</g>
<!-- [root] var.ASG_HEALTH_CHECK_GRACE_PERIOD -->
<g id="node18" class="node">
<title>[root] var.ASG_HEALTH_CHECK_GRACE_PERIOD</title>
<polygon fill="none" stroke="black" points="3328.5,-324 3007.5,-324 3007.5,-288 3334.5,-288 3334.5,-318 3328.5,-324"/>
<polyline fill="none" stroke="black" points="3328.5,-324 3328.5,-318 "/>
<polyline fill="none" stroke="black" points="3334.5,-318 3328.5,-318 "/>
<text text-anchor="middle" x="3171" y="-302.3" font-family="Times,serif" font-size="14.00">var.ASG_HEALTH_CHECK_GRACE_PERIOD</text>
</g>
<!-- [root] aws_autoscaling_group.eks_node (expand)&#45;&gt;[root] var.ASG_HEALTH_CHECK_GRACE_PERIOD -->
<g id="edge4" class="edge">
<title>[root] aws_autoscaling_group.eks_node (expand)&#45;&gt;[root] var.ASG_HEALTH_CHECK_GRACE_PERIOD</title>
<path fill="none" stroke="black" d="M2183.68,-371.61C2362.21,-363.58 2699.71,-346.99 2997.03,-324.14"/>
<polygon fill="black" stroke="black" points="2997.44,-327.62 3007.14,-323.36 2996.9,-320.64 2997.44,-327.62"/>
</g>
<!-- [root] var.ASG_HEALTH_CHECK_TYPE -->
<g id="node19" class="node">
<title>[root] var.ASG_HEALTH_CHECK_TYPE</title>
<polygon fill="none" stroke="black" points="1339,-324 1097,-324 1097,-288 1345,-288 1345,-318 1339,-324"/>
<polyline fill="none" stroke="black" points="1339,-324 1339,-318 "/>
<polyline fill="none" stroke="black" points="1345,-318 1339,-318 "/>
<text text-anchor="middle" x="1221" y="-302.3" font-family="Times,serif" font-size="14.00">var.ASG_HEALTH_CHECK_TYPE</text>
</g>
<!-- [root] aws_autoscaling_group.eks_node (expand)&#45;&gt;[root] var.ASG_HEALTH_CHECK_TYPE -->
<g id="edge5" class="edge">
<title>[root] aws_autoscaling_group.eks_node (expand)&#45;&gt;[root] var.ASG_HEALTH_CHECK_TYPE</title>
<path fill="none" stroke="black" d="M1932.25,-369.51C1793.55,-360.8 1563.52,-345.01 1355.43,-324.12"/>
<polygon fill="black" stroke="black" points="1355.52,-320.61 1345.22,-323.08 1354.82,-327.57 1355.52,-320.61"/>
</g>
<!-- [root] var.CLUSTER_SUFFIX -->
<g id="node20" class="node">
<title>[root] var.CLUSTER_SUFFIX</title>
<polygon fill="none" stroke="black" points="1533,-324 1363,-324 1363,-288 1539,-288 1539,-318 1533,-324"/>
<polyline fill="none" stroke="black" points="1533,-324 1533,-318 "/>
<polyline fill="none" stroke="black" points="1539,-318 1533,-318 "/>
<text text-anchor="middle" x="1451" y="-302.3" font-family="Times,serif" font-size="14.00">var.CLUSTER_SUFFIX</text>
</g>
<!-- [root] aws_autoscaling_group.eks_node (expand)&#45;&gt;[root] var.CLUSTER_SUFFIX -->
<g id="edge6" class="edge">
<title>[root] aws_autoscaling_group.eks_node (expand)&#45;&gt;[root] var.CLUSTER_SUFFIX</title>
<path fill="none" stroke="black" d="M1932.47,-366.42C1831.59,-357.34 1686.02,-342.95 1549.48,-324.15"/>
<polygon fill="black" stroke="black" points="1549.63,-320.64 1539.25,-322.74 1548.67,-327.58 1549.63,-320.64"/>
</g>
<!-- [root] var.MAX_NR_OF_NODES -->
<g id="node41" class="node">
<title>[root] var.MAX_NR_OF_NODES</title>
<polygon fill="none" stroke="black" points="1745.5,-324 1556.5,-324 1556.5,-288 1751.5,-288 1751.5,-318 1745.5,-324"/>
<polyline fill="none" stroke="black" points="1745.5,-324 1745.5,-318 "/>
<polyline fill="none" stroke="black" points="1751.5,-318 1745.5,-318 "/>
<text text-anchor="middle" x="1654" y="-302.3" font-family="Times,serif" font-size="14.00">var.MAX_NR_OF_NODES</text>
</g>
<!-- [root] aws_autoscaling_group.eks_node (expand)&#45;&gt;[root] var.MAX_NR_OF_NODES -->
<g id="edge7" class="edge">
<title>[root] aws_autoscaling_group.eks_node (expand)&#45;&gt;[root] var.MAX_NR_OF_NODES</title>
<path fill="none" stroke="black" d="M1959.69,-359.97C1899.84,-349.6 1823.33,-336.34 1761.83,-325.68"/>
<polygon fill="black" stroke="black" points="1762.15,-322.19 1751.7,-323.93 1760.96,-329.08 1762.15,-322.19"/>
</g>
<!-- [root] var.MIN_NR_OF_NODES -->
<g id="node42" class="node">
<title>[root] var.MIN_NR_OF_NODES</title>
<polygon fill="none" stroke="black" points="1956.5,-324 1769.5,-324 1769.5,-288 1962.5,-288 1962.5,-318 1956.5,-324"/>
<polyline fill="none" stroke="black" points="1956.5,-324 1956.5,-318 "/>
<polyline fill="none" stroke="black" points="1962.5,-318 1956.5,-318 "/>
<text text-anchor="middle" x="1866" y="-302.3" font-family="Times,serif" font-size="14.00">var.MIN_NR_OF_NODES</text>
</g>
<!-- [root] aws_autoscaling_group.eks_node (expand)&#45;&gt;[root] var.MIN_NR_OF_NODES -->
<g id="edge8" class="edge">
<title>[root] aws_autoscaling_group.eks_node (expand)&#45;&gt;[root] var.MIN_NR_OF_NODES</title>
<path fill="none" stroke="black" d="M2011.03,-359.88C1984.32,-350.14 1950.68,-337.87 1922.53,-327.61"/>
<polygon fill="black" stroke="black" points="1923.41,-324.21 1912.82,-324.07 1921.01,-330.78 1923.41,-324.21"/>
</g>
<!-- [root] var.NR_OF_NODES -->
<g id="node45" class="node">
<title>[root] var.NR_OF_NODES</title>
<polygon fill="none" stroke="black" points="2129.5,-324 1980.5,-324 1980.5,-288 2135.5,-288 2135.5,-318 2129.5,-324"/>
<polyline fill="none" stroke="black" points="2129.5,-324 2129.5,-318 "/>
<polyline fill="none" stroke="black" points="2135.5,-318 2129.5,-318 "/>
<text text-anchor="middle" x="2058" y="-302.3" font-family="Times,serif" font-size="14.00">var.NR_OF_NODES</text>
</g>
<!-- [root] aws_autoscaling_group.eks_node (expand)&#45;&gt;[root] var.NR_OF_NODES -->
<g id="edge9" class="edge">
<title>[root] aws_autoscaling_group.eks_node (expand)&#45;&gt;[root] var.NR_OF_NODES</title>
<path fill="none" stroke="black" d="M2058,-359.7C2058,-351.98 2058,-342.71 2058,-334.11"/>
<polygon fill="black" stroke="black" points="2061.5,-334.1 2058,-324.1 2054.5,-334.1 2061.5,-334.1"/>
</g>
<!-- [root] var.SUBNET_IDS -->
<g id="node49" class="node">
<title>[root] var.SUBNET_IDS</title>
<polygon fill="none" stroke="black" points="2288,-324 2154,-324 2154,-288 2294,-288 2294,-318 2288,-324"/>
<polyline fill="none" stroke="black" points="2288,-324 2288,-318 "/>
<polyline fill="none" stroke="black" points="2294,-318 2288,-318 "/>
<text text-anchor="middle" x="2224" y="-302.3" font-family="Times,serif" font-size="14.00">var.SUBNET_IDS</text>
</g>
<!-- [root] aws_autoscaling_group.eks_node (expand)&#45;&gt;[root] var.SUBNET_IDS -->
<g id="edge10" class="edge">
<title>[root] aws_autoscaling_group.eks_node (expand)&#45;&gt;[root] var.SUBNET_IDS</title>
<path fill="none" stroke="black" d="M2098.61,-359.88C2121.4,-350.26 2150.03,-338.19 2174.17,-328.01"/>
<polygon fill="black" stroke="black" points="2175.67,-331.18 2183.52,-324.07 2172.95,-324.73 2175.67,-331.18"/>
</g>
<!-- [root] var.TARGET_GROUP_ARNS -->
<g id="node51" class="node">
<title>[root] var.TARGET_GROUP_ARNS</title>
<polygon fill="none" stroke="black" points="2518,-324 2312,-324 2312,-288 2524,-288 2524,-318 2518,-324"/>
<polyline fill="none" stroke="black" points="2518,-324 2518,-318 "/>
<polyline fill="none" stroke="black" points="2524,-318 2518,-318 "/>
<text text-anchor="middle" x="2418" y="-302.3" font-family="Times,serif" font-size="14.00">var.TARGET_GROUP_ARNS</text>
</g>
<!-- [root] aws_autoscaling_group.eks_node (expand)&#45;&gt;[root] var.TARGET_GROUP_ARNS -->
<g id="edge11" class="edge">
<title>[root] aws_autoscaling_group.eks_node (expand)&#45;&gt;[root] var.TARGET_GROUP_ARNS</title>
<path fill="none" stroke="black" d="M2145.61,-359.97C2198.41,-349.7 2265.77,-336.6 2320.29,-326"/>
<polygon fill="black" stroke="black" points="2321.17,-329.39 2330.31,-324.05 2319.83,-322.52 2321.17,-329.39"/>
</g>
<!-- [root] aws_key_pair.eks_node (expand) -->
<g id="node2" class="node">
<title>[root] aws_key_pair.eks_node (expand)</title>
<polygon fill="none" stroke="black" points="1812.5,-252 1633.5,-252 1633.5,-216 1812.5,-216 1812.5,-252"/>
<text text-anchor="middle" x="1723" y="-230.3" font-family="Times,serif" font-size="14.00">aws_key_pair.eks_node</text>
</g>
<!-- [root] provider[&quot;registry.terraform.io/hashicorp/aws&quot;] -->
<g id="node12" class="node">
<title>[root] provider[&quot;registry.terraform.io/hashicorp/aws&quot;]</title>
<polygon fill="none" stroke="black" points="995,-108 669.74,-90 995,-72 1320.26,-90 995,-108"/>
<text text-anchor="middle" x="995" y="-86.3" font-family="Times,serif" font-size="14.00">provider[&quot;registry.terraform.io/hashicorp/aws&quot;]</text>
</g>
<!-- [root] aws_key_pair.eks_node (expand)&#45;&gt;[root] provider[&quot;registry.terraform.io/hashicorp/aws&quot;] -->
<g id="edge12" class="edge">
<title>[root] aws_key_pair.eks_node (expand)&#45;&gt;[root] provider[&quot;registry.terraform.io/hashicorp/aws&quot;]</title>
<path fill="none" stroke="black" d="M1635.55,-215.94C1492.27,-187.99 1209.79,-132.9 1072.95,-106.2"/>
<polygon fill="black" stroke="black" points="1073.44,-102.73 1062.95,-104.25 1072.1,-109.6 1073.44,-102.73"/>
</g>
<!-- [root] random_string.key (expand) -->
<g id="node14" class="node">
<title>[root] random_string.key (expand)</title>
<polygon fill="none" stroke="black" points="2932,-180 2782,-180 2782,-144 2932,-144 2932,-180"/>
<text text-anchor="middle" x="2857" y="-158.3" font-family="Times,serif" font-size="14.00">random_string.key</text>
</g>
<!-- [root] aws_key_pair.eks_node (expand)&#45;&gt;[root] random_string.key (expand) -->
<g id="edge13" class="edge">
<title>[root] aws_key_pair.eks_node (expand)&#45;&gt;[root] random_string.key (expand)</title>
<path fill="none" stroke="black" d="M1812.51,-217.12C1815.71,-216.72 1818.88,-216.34 1822,-216 2159.49,-179.2 2246.02,-198.59 2585,-180 2647.58,-176.57 2718.22,-172.14 2771.83,-168.66"/>
<polygon fill="black" stroke="black" points="2772.22,-172.14 2781.97,-168 2771.77,-165.15 2772.22,-172.14"/>
</g>
<!-- [root] var.SUFFIX -->
<g id="node50" class="node">
<title>[root] var.SUFFIX</title>
<polygon fill="none" stroke="black" points="1766.5,-180 1673.5,-180 1673.5,-144 1772.5,-144 1772.5,-174 1766.5,-180"/>
<polyline fill="none" stroke="black" points="1766.5,-180 1766.5,-174 "/>
<polyline fill="none" stroke="black" points="1772.5,-174 1766.5,-174 "/>
<text text-anchor="middle" x="1723" y="-158.3" font-family="Times,serif" font-size="14.00">var.SUFFIX</text>
</g>
<!-- [root] aws_key_pair.eks_node (expand)&#45;&gt;[root] var.SUFFIX -->
<g id="edge14" class="edge">
<title>[root] aws_key_pair.eks_node (expand)&#45;&gt;[root] var.SUFFIX</title>
<path fill="none" stroke="black" d="M1723,-215.7C1723,-207.98 1723,-198.71 1723,-190.11"/>
<polygon fill="black" stroke="black" points="1726.5,-190.1 1723,-180.1 1719.5,-190.1 1726.5,-190.1"/>
</g>
<!-- [root] aws_kms_grant.autoscaling (expand) -->
<g id="node3" class="node">
<title>[root] aws_kms_grant.autoscaling (expand)</title>
<polygon fill="none" stroke="black" points="1903,-468 1691,-468 1691,-432 1903,-432 1903,-468"/>
<text text-anchor="middle" x="1797" y="-446.3" font-family="Times,serif" font-size="14.00">aws_kms_grant.autoscaling</text>
</g>
<!-- [root] aws_kms_grant.autoscaling (expand)&#45;&gt;[root] aws_autoscaling_group.eks_node (expand) -->
<g id="edge15" class="edge">
<title>[root] aws_kms_grant.autoscaling (expand)&#45;&gt;[root] aws_autoscaling_group.eks_node (expand)</title>
<path fill="none" stroke="black" d="M1860.51,-431.97C1897.93,-421.93 1945.43,-409.19 1984.47,-398.72"/>
<polygon fill="black" stroke="black" points="1985.45,-402.08 1994.2,-396.11 1983.64,-395.32 1985.45,-402.08"/>
</g>
<!-- [root] aws_kms_grant.autoscaling_shared (expand) -->
<g id="node4" class="node">
<title>[root] aws_kms_grant.autoscaling_shared (expand)</title>
<polygon fill="none" stroke="black" points="2190,-468 1922,-468 1922,-432 2190,-432 2190,-468"/>
<text text-anchor="middle" x="2056" y="-446.3" font-family="Times,serif" font-size="14.00">aws_kms_grant.autoscaling_shared</text>
</g>
<!-- [root] aws_kms_grant.autoscaling_shared (expand)&#45;&gt;[root] aws_autoscaling_group.eks_node (expand) -->
<g id="edge16" class="edge">
<title>[root] aws_kms_grant.autoscaling_shared (expand)&#45;&gt;[root] aws_autoscaling_group.eks_node (expand)</title>
<path fill="none" stroke="black" d="M2056.49,-431.7C2056.71,-423.98 2056.98,-414.71 2057.23,-406.11"/>
<polygon fill="black" stroke="black" points="2060.72,-406.2 2057.51,-396.1 2053.73,-406 2060.72,-406.2"/>
</g>
<!-- [root] local.kms_shared_ami_key_id (expand) -->
<g id="node56" class="node">
<title>[root] local.kms_shared_ami_key_id (expand)</title>
<ellipse fill="none" stroke="black" cx="6187" cy="-90" rx="217.96" ry="18"/>
<text text-anchor="middle" x="6187" y="-86.3" font-family="Times,serif" font-size="14.00">[root] local.kms_shared_ami_key_id (expand)</text>
</g>
<!-- [root] aws_kms_grant.autoscaling_shared (expand)&#45;&gt;[root] local.kms_shared_ami_key_id (expand) -->
<g id="edge17" class="edge">
<title>[root] aws_kms_grant.autoscaling_shared (expand)&#45;&gt;[root] local.kms_shared_ami_key_id (expand)</title>
<path fill="none" stroke="black" d="M2190.15,-446.68C2834.77,-434.92 5597.87,-377.52 5960,-252 6043.75,-222.97 6124.04,-152.87 6162.82,-115.47"/>
<polygon fill="black" stroke="black" points="6165.74,-117.5 6170.45,-108.01 6160.85,-112.5 6165.74,-117.5"/>
</g>
<!-- [root] aws_launch_template.eks_node (expand)&#45;&gt;[root] aws_key_pair.eks_node (expand) -->
<g id="edge18" class="edge">
<title>[root] aws_launch_template.eks_node (expand)&#45;&gt;[root] aws_key_pair.eks_node (expand)</title>
<path fill="none" stroke="black" d="M3352.47,-288.71C3349.62,-288.46 3346.79,-288.22 3344,-288 2672.71,-235.64 2497.17,-316.63 1822.73,-251.97"/>
<polygon fill="black" stroke="black" points="1823.06,-248.48 1812.77,-251 1822.38,-255.45 1823.06,-248.48"/>
</g>
<!-- [root] data.aws_ami.eks_node (expand) -->
<g id="node10" class="node">
<title>[root] data.aws_ami.eks_node (expand)</title>
<polygon fill="none" stroke="black" points="2794.5,-252 2611.5,-252 2611.5,-216 2794.5,-216 2794.5,-252"/>
<text text-anchor="middle" x="2703" y="-230.3" font-family="Times,serif" font-size="14.00">data.aws_ami.eks_node</text>
</g>
<!-- [root] aws_launch_template.eks_node (expand)&#45;&gt;[root] data.aws_ami.eks_node (expand) -->
<g id="edge19" class="edge">
<title>[root] aws_launch_template.eks_node (expand)&#45;&gt;[root] data.aws_ami.eks_node (expand)</title>
<path fill="none" stroke="black" d="M3352.45,-288.87C3349.61,-288.57 3346.79,-288.28 3344,-288 3107.92,-264.48 3044.62,-279.57 2804.68,-252"/>
<polygon fill="black" stroke="black" points="2804.94,-248.51 2794.6,-250.83 2804.13,-255.46 2804.94,-248.51"/>
</g>
<!-- [root] var.CUSTOM_TAGS -->
<g id="node25" class="node">
<title>[root] var.CUSTOM_TAGS</title>
<polygon fill="none" stroke="black" points="1979.5,-252 1830.5,-252 1830.5,-216 1985.5,-216 1985.5,-246 1979.5,-252"/>
<polyline fill="none" stroke="black" points="1979.5,-252 1979.5,-246 "/>
<polyline fill="none" stroke="black" points="1985.5,-246 1979.5,-246 "/>
<text text-anchor="middle" x="1908" y="-230.3" font-family="Times,serif" font-size="14.00">var.CUSTOM_TAGS</text>
</g>
<!-- [root] aws_launch_template.eks_node (expand)&#45;&gt;[root] var.CUSTOM_TAGS -->
<g id="edge22" class="edge">
<title>[root] aws_launch_template.eks_node (expand)&#45;&gt;[root] var.CUSTOM_TAGS</title>
<path fill="none" stroke="black" d="M3352.47,-288.72C3349.62,-288.46 3346.79,-288.22 3344,-288 2749.48,-240.72 2592.91,-316.87 1995.85,-251.96"/>
<polygon fill="black" stroke="black" points="1996.01,-248.46 1985.69,-250.84 1995.25,-255.41 1996.01,-248.46"/>
</g>
<!-- [root] var.DEPENDS_ON_MODULE -->
<g id="node26" class="node">
<title>[root] var.DEPENDS_ON_MODULE</title>
<polygon fill="none" stroke="black" points="2220.5,-252 2003.5,-252 2003.5,-216 2226.5,-216 2226.5,-246 2220.5,-252"/>
<polyline fill="none" stroke="black" points="2220.5,-252 2220.5,-246 "/>
<polyline fill="none" stroke="black" points="2226.5,-246 2220.5,-246 "/>
<text text-anchor="middle" x="2115" y="-230.3" font-family="Times,serif" font-size="14.00">var.DEPENDS_ON_MODULE</text>
</g>
<!-- [root] aws_launch_template.eks_node (expand)&#45;&gt;[root] var.DEPENDS_ON_MODULE -->
<g id="edge23" class="edge">
<title>[root] aws_launch_template.eks_node (expand)&#45;&gt;[root] var.DEPENDS_ON_MODULE</title>
<path fill="none" stroke="black" d="M3352.47,-288.74C3349.62,-288.48 3346.79,-288.23 3344,-288 2856.32,-247.79 2728.62,-293.7 2236.9,-252.01"/>
<polygon fill="black" stroke="black" points="2236.96,-248.5 2226.7,-251.14 2236.36,-255.48 2236.96,-248.5"/>
</g>
<!-- [root] var.EKS_NODE_METADATA_HTTP_ENDPOINT -->
<g id="node33" class="node">
<title>[root] var.EKS_NODE_METADATA_HTTP_ENDPOINT</title>
<polygon fill="none" stroke="black" points="2587,-252 2245,-252 2245,-216 2593,-216 2593,-246 2587,-252"/>
<polyline fill="none" stroke="black" points="2587,-252 2587,-246 "/>
<polyline fill="none" stroke="black" points="2593,-246 2587,-246 "/>
<text text-anchor="middle" x="2419" y="-230.3" font-family="Times,serif" font-size="14.00">var.EKS_NODE_METADATA_HTTP_ENDPOINT</text>
</g>
<!-- [root] aws_launch_template.eks_node (expand)&#45;&gt;[root] var.EKS_NODE_METADATA_HTTP_ENDPOINT -->
<g id="edge24" class="edge">
<title>[root] aws_launch_template.eks_node (expand)&#45;&gt;[root] var.EKS_NODE_METADATA_HTTP_ENDPOINT</title>
<path fill="none" stroke="black" d="M3352.46,-288.8C3349.61,-288.52 3346.79,-288.25 3344,-288 3018.99,-258.57 2933.65,-274.83 2603.65,-252.02"/>
<polygon fill="black" stroke="black" points="2603.53,-248.5 2593.31,-251.3 2603.05,-255.49 2603.53,-248.5"/>
</g>
<!-- [root] var.EKS_NODE_METADATA_HTTP_PUT_RESPONSE_HOP_LIMIT -->
<g id="node34" class="node">
<title>[root] var.EKS_NODE_METADATA_HTTP_PUT_RESPONSE_HOP_LIMIT</title>
<polygon fill="none" stroke="black" points="3283.5,-252 2812.5,-252 2812.5,-216 3289.5,-216 3289.5,-246 3283.5,-252"/>
<polyline fill="none" stroke="black" points="3283.5,-252 3283.5,-246 "/>
<polyline fill="none" stroke="black" points="3289.5,-246 3283.5,-246 "/>
<text text-anchor="middle" x="3051" y="-230.3" font-family="Times,serif" font-size="14.00">var.EKS_NODE_METADATA_HTTP_PUT_RESPONSE_HOP_LIMIT</text>
</g>
<!-- [root] aws_launch_template.eks_node (expand)&#45;&gt;[root] var.EKS_NODE_METADATA_HTTP_PUT_RESPONSE_HOP_LIMIT -->
<g id="edge25" class="edge">
<title>[root] aws_launch_template.eks_node (expand)&#45;&gt;[root] var.EKS_NODE_METADATA_HTTP_PUT_RESPONSE_HOP_LIMIT</title>
<path fill="none" stroke="black" d="M3369.55,-287.97C3307.29,-277.61 3227.72,-264.38 3163.68,-253.74"/>
<polygon fill="black" stroke="black" points="3163.98,-250.24 3153.54,-252.05 3162.83,-257.14 3163.98,-250.24"/>
</g>
<!-- [root] var.EKS_NODE_METADATA_HTTP_TOKENS -->
<g id="node35" class="node">
<title>[root] var.EKS_NODE_METADATA_HTTP_TOKENS</title>
<polygon fill="none" stroke="black" points="3632,-252 3308,-252 3308,-216 3638,-216 3638,-246 3632,-252"/>
<polyline fill="none" stroke="black" points="3632,-252 3632,-246 "/>
<polyline fill="none" stroke="black" points="3638,-246 3632,-246 "/>
<text text-anchor="middle" x="3473" y="-230.3" font-family="Times,serif" font-size="14.00">var.EKS_NODE_METADATA_HTTP_TOKENS</text>
</g>
<!-- [root] aws_launch_template.eks_node (expand)&#45;&gt;[root] var.EKS_NODE_METADATA_HTTP_TOKENS -->
<g id="edge26" class="edge">
<title>[root] aws_launch_template.eks_node (expand)&#45;&gt;[root] var.EKS_NODE_METADATA_HTTP_TOKENS</title>
<path fill="none" stroke="black" d="M3472.25,-287.7C3472.36,-279.98 3472.49,-270.71 3472.61,-262.11"/>
<polygon fill="black" stroke="black" points="3476.11,-262.15 3472.76,-252.1 3469.11,-262.05 3476.11,-262.15"/>
</g>
<!-- [root] var.ENABLE_SPOT_INSTANCES -->
<g id="node36" class="node">
<title>[root] var.ENABLE_SPOT_INSTANCES</title>
<polygon fill="none" stroke="black" points="3896,-252 3656,-252 3656,-216 3902,-216 3902,-246 3896,-252"/>
<polyline fill="none" stroke="black" points="3896,-252 3896,-246 "/>
<polyline fill="none" stroke="black" points="3902,-246 3896,-246 "/>
<text text-anchor="middle" x="3779" y="-230.3" font-family="Times,serif" font-size="14.00">var.ENABLE_SPOT_INSTANCES</text>
</g>
<!-- [root] aws_launch_template.eks_node (expand)&#45;&gt;[root] var.ENABLE_SPOT_INSTANCES -->
<g id="edge27" class="edge">
<title>[root] aws_launch_template.eks_node (expand)&#45;&gt;[root] var.ENABLE_SPOT_INSTANCES</title>
<path fill="none" stroke="black" d="M3546.71,-287.97C3591.27,-277.8 3647.99,-264.87 3694.22,-254.33"/>
<polygon fill="black" stroke="black" points="3695.25,-257.69 3704.22,-252.05 3693.7,-250.86 3695.25,-257.69"/>
</g>
<!-- [root] var.INSTANCE_TYPE -->
<g id="node37" class="node">
<title>[root] var.INSTANCE_TYPE</title>
<polygon fill="none" stroke="black" points="4080,-252 3920,-252 3920,-216 4086,-216 4086,-246 4080,-252"/>
<polyline fill="none" stroke="black" points="4080,-252 4080,-246 "/>
<polyline fill="none" stroke="black" points="4086,-246 4080,-246 "/>
<text text-anchor="middle" x="4003" y="-230.3" font-family="Times,serif" font-size="14.00">var.INSTANCE_TYPE</text>
</g>
<!-- [root] aws_launch_template.eks_node (expand)&#45;&gt;[root] var.INSTANCE_TYPE -->
<g id="edge28" class="edge">
<title>[root] aws_launch_template.eks_node (expand)&#45;&gt;[root] var.INSTANCE_TYPE</title>
<path fill="none" stroke="black" d="M3591.52,-292.61C3677.45,-283.23 3796.28,-269.26 3909.88,-252.12"/>
<polygon fill="black" stroke="black" points="3910.43,-255.58 3919.79,-250.62 3909.38,-248.66 3910.43,-255.58"/>
</g>
<!-- [root] var.KMS_KEY_ID -->
<g id="node38" class="node">
<title>[root] var.KMS_KEY_ID</title>
<polygon fill="none" stroke="black" points="4235.5,-252 4104.5,-252 4104.5,-216 4241.5,-216 4241.5,-246 4235.5,-252"/>
<polyline fill="none" stroke="black" points="4235.5,-252 4235.5,-246 "/>
<polyline fill="none" stroke="black" points="4241.5,-246 4235.5,-246 "/>
<text text-anchor="middle" x="4173" y="-230.3" font-family="Times,serif" font-size="14.00">var.KMS_KEY_ID</text>
</g>
<!-- [root] aws_launch_template.eks_node (expand)&#45;&gt;[root] var.KMS_KEY_ID -->
<g id="edge29" class="edge">
<title>[root] aws_launch_template.eks_node (expand)&#45;&gt;[root] var.KMS_KEY_ID</title>
<path fill="none" stroke="black" d="M3591.68,-299.44C3715.24,-292.64 3913.66,-278.77 4094.24,-252"/>
<polygon fill="black" stroke="black" points="4094.82,-255.45 4104.19,-250.5 4093.78,-248.53 4094.82,-255.45"/>
</g>
<!-- [root] var.NESSUS_SG -->
<g id="node44" class="node">
<title>[root] var.NESSUS_SG</title>
<polygon fill="none" stroke="black" points="4388,-252 4260,-252 4260,-216 4394,-216 4394,-246 4388,-252"/>
<polyline fill="none" stroke="black" points="4388,-252 4388,-246 "/>
<polyline fill="none" stroke="black" points="4394,-246 4388,-246 "/>
<text text-anchor="middle" x="4327" y="-230.3" font-family="Times,serif" font-size="14.00">var.NESSUS_SG</text>
</g>
<!-- [root] aws_launch_template.eks_node (expand)&#45;&gt;[root] var.NESSUS_SG -->
<g id="edge30" class="edge">
<title>[root] aws_launch_template.eks_node (expand)&#45;&gt;[root] var.NESSUS_SG</title>
<path fill="none" stroke="black" d="M3591.71,-302.5C3743.05,-298.07 4011.62,-285.96 4250.07,-252"/>
<polygon fill="black" stroke="black" points="4250.57,-255.46 4259.97,-250.58 4249.57,-248.54 4250.57,-255.46"/>
</g>
<!-- [root] var.SECURITY_GROUPS_ID -->
<g id="node46" class="node">
<title>[root] var.SECURITY_GROUPS_ID</title>
<polygon fill="none" stroke="black" points="4620,-252 4412,-252 4412,-216 4626,-216 4626,-246 4620,-252"/>
<polyline fill="none" stroke="black" points="4620,-252 4620,-246 "/>
<polyline fill="none" stroke="black" points="4626,-246 4620,-246 "/>
<text text-anchor="middle" x="4519" y="-230.3" font-family="Times,serif" font-size="14.00">var.SECURITY_GROUPS_ID</text>
</g>
<!-- [root] aws_launch_template.eks_node (expand)&#45;&gt;[root] var.SECURITY_GROUPS_ID -->
<g id="edge31" class="edge">
<title>[root] aws_launch_template.eks_node (expand)&#45;&gt;[root] var.SECURITY_GROUPS_ID</title>
<path fill="none" stroke="black" d="M3591.68,-301.58C3767.17,-295.81 4104.79,-281.82 4401.81,-252.07"/>
<polygon fill="black" stroke="black" points="4402.32,-255.53 4411.91,-251.05 4401.61,-248.57 4402.32,-255.53"/>
</g>
<!-- [root] var.SPOT_MAX_PRICE -->
<g id="node48" class="node">
<title>[root] var.SPOT_MAX_PRICE</title>
<polygon fill="none" stroke="black" points="1267,-252 1097,-252 1097,-216 1273,-216 1273,-246 1267,-252"/>
<polyline fill="none" stroke="black" points="1267,-252 1267,-246 "/>
<polyline fill="none" stroke="black" points="1273,-246 1267,-246 "/>
<text text-anchor="middle" x="1185" y="-230.3" font-family="Times,serif" font-size="14.00">var.SPOT_MAX_PRICE</text>
</g>
<!-- [root] aws_launch_template.eks_node (expand)&#45;&gt;[root] var.SPOT_MAX_PRICE -->
<g id="edge32" class="edge">
<title>[root] aws_launch_template.eks_node (expand)&#45;&gt;[root] var.SPOT_MAX_PRICE</title>
<path fill="none" stroke="black" d="M3352.47,-288.69C3349.62,-288.44 3346.79,-288.21 3344,-288 2433.76,-219.83 2196.78,-337.68 1283.16,-251.89"/>
<polygon fill="black" stroke="black" points="1283.35,-248.39 1273.06,-250.94 1282.69,-255.36 1283.35,-248.39"/>
</g>
<!-- [root] var.VOLUME_SIZE -->
<g id="node52" class="node">
<title>[root] var.VOLUME_SIZE</title>
<polygon fill="none" stroke="black" points="1436.5,-252 1291.5,-252 1291.5,-216 1442.5,-216 1442.5,-246 1436.5,-252"/>
<polyline fill="none" stroke="black" points="1436.5,-252 1436.5,-246 "/>
<polyline fill="none" stroke="black" points="1442.5,-246 1436.5,-246 "/>
<text text-anchor="middle" x="1367" y="-230.3" font-family="Times,serif" font-size="14.00">var.VOLUME_SIZE</text>
</g>
<!-- [root] aws_launch_template.eks_node (expand)&#45;&gt;[root] var.VOLUME_SIZE -->
<g id="edge33" class="edge">
<title>[root] aws_launch_template.eks_node (expand)&#45;&gt;[root] var.VOLUME_SIZE</title>
<path fill="none" stroke="black" d="M3352.47,-288.69C3349.62,-288.44 3346.79,-288.21 3344,-288 2508.74,-224.79 2289.88,-341.88 1453.08,-251.98"/>
<polygon fill="black" stroke="black" points="1453.21,-248.47 1442.9,-250.88 1452.46,-255.43 1453.21,-248.47"/>
</g>
<!-- [root] var.VOLUME_TYPE -->
<g id="node53" class="node">
<title>[root] var.VOLUME_TYPE</title>
<polygon fill="none" stroke="black" points="1609,-252 1461,-252 1461,-216 1615,-216 1615,-246 1609,-252"/>
<polyline fill="none" stroke="black" points="1609,-252 1609,-246 "/>
<polyline fill="none" stroke="black" points="1615,-246 1609,-246 "/>
<text text-anchor="middle" x="1538" y="-230.3" font-family="Times,serif" font-size="14.00">var.VOLUME_TYPE</text>
</g>
<!-- [root] aws_launch_template.eks_node (expand)&#45;&gt;[root] var.VOLUME_TYPE -->
<g id="edge34" class="edge">
<title>[root] aws_launch_template.eks_node (expand)&#45;&gt;[root] var.VOLUME_TYPE</title>
<path fill="none" stroke="black" d="M3352.47,-288.7C3349.62,-288.45 3346.79,-288.21 3344,-288 2585.42,-229.86 2386.55,-332.67 1625.33,-251.88"/>
<polygon fill="black" stroke="black" points="1625.53,-248.39 1615.22,-250.8 1624.79,-255.35 1625.53,-248.39"/>
</g>
<!-- [root] local.default_tags (expand) -->
<g id="node57" class="node">
<title>[root] local.default_tags (expand)</title>
<ellipse fill="none" stroke="black" cx="5787" cy="-234" rx="164.37" ry="18"/>
<text text-anchor="middle" x="5787" y="-230.3" font-family="Times,serif" font-size="14.00">[root] local.default_tags (expand)</text>
</g>
<!-- [root] aws_launch_template.eks_node (expand)&#45;&gt;[root] local.default_tags (expand) -->
<g id="edge20" class="edge">
<title>[root] aws_launch_template.eks_node (expand)&#45;&gt;[root] local.default_tags (expand)</title>
<path fill="none" stroke="black" d="M3591.59,-301.38C3975.56,-289.77 5177.87,-253.42 5620.91,-240.02"/>
<polygon fill="black" stroke="black" points="5621.03,-243.52 5630.92,-239.72 5620.82,-236.52 5621.03,-243.52"/>
</g>
<!-- [root] local.userdata (expand) -->
<g id="node58" class="node">
<title>[root] local.userdata (expand)</title>
<ellipse fill="none" stroke="black" cx="4830" cy="-234" rx="148.37" ry="18"/>
<text text-anchor="middle" x="4830" y="-230.3" font-family="Times,serif" font-size="14.00">[root] local.userdata (expand)</text>
</g>
<!-- [root] aws_launch_template.eks_node (expand)&#45;&gt;[root] local.userdata (expand) -->
<g id="edge21" class="edge">
<title>[root] aws_launch_template.eks_node (expand)&#45;&gt;[root] local.userdata (expand)</title>
<path fill="none" stroke="black" d="M3591.8,-301.18C3802.78,-294.08 4254.34,-277.26 4635,-252 4658.22,-250.46 4682.96,-248.53 4706.76,-246.52"/>
<polygon fill="black" stroke="black" points="4707.23,-250 4716.89,-245.66 4706.63,-243.02 4707.23,-250"/>
</g>
<!-- [root] aws_security_group_rule.eks_node_egress_custom (expand) -->
<g id="node6" class="node">
<title>[root] aws_security_group_rule.eks_node_egress_custom (expand)</title>
<polygon fill="none" stroke="black" points="1672.5,-468 1297.5,-468 1297.5,-432 1672.5,-432 1672.5,-468"/>
<text text-anchor="middle" x="1485" y="-446.3" font-family="Times,serif" font-size="14.00">aws_security_group_rule.eks_node_egress_custom</text>
</g>
<!-- [root] aws_security_group_rule.eks_node_egress_custom (expand)&#45;&gt;[root] provider[&quot;registry.terraform.io/hashicorp/aws&quot;] -->
<g id="edge35" class="edge">
<title>[root] aws_security_group_rule.eks_node_egress_custom (expand)&#45;&gt;[root] provider[&quot;registry.terraform.io/hashicorp/aws&quot;]</title>
<path fill="none" stroke="black" d="M1440.04,-431.9C1414.57,-421.94 1382.25,-408.85 1354,-396 1321.79,-381.35 1316.52,-371.33 1283,-360 1199.51,-331.78 1151.11,-385.52 1088,-324 1029.45,-266.93 1089.63,-215.52 1050,-144 1043.67,-132.58 1034.08,-122.11 1024.67,-113.54"/>
<polygon fill="black" stroke="black" points="1026.74,-110.7 1016.88,-106.81 1022.16,-116 1026.74,-110.7"/>
</g>
<!-- [root] var.CUSTOM_EGRESS_ACCESS -->
<g id="node23" class="node">
<title>[root] var.CUSTOM_EGRESS_ACCESS</title>
<polygon fill="none" stroke="black" points="1601.5,-396 1362.5,-396 1362.5,-360 1607.5,-360 1607.5,-390 1601.5,-396"/>
<polyline fill="none" stroke="black" points="1601.5,-396 1601.5,-390 "/>
<polyline fill="none" stroke="black" points="1607.5,-390 1601.5,-390 "/>
<text text-anchor="middle" x="1485" y="-374.3" font-family="Times,serif" font-size="14.00">var.CUSTOM_EGRESS_ACCESS</text>
</g>
<!-- [root] aws_security_group_rule.eks_node_egress_custom (expand)&#45;&gt;[root] var.CUSTOM_EGRESS_ACCESS -->
<g id="edge36" class="edge">
<title>[root] aws_security_group_rule.eks_node_egress_custom (expand)&#45;&gt;[root] var.CUSTOM_EGRESS_ACCESS</title>
<path fill="none" stroke="black" d="M1485,-431.7C1485,-423.98 1485,-414.71 1485,-406.11"/>
<polygon fill="black" stroke="black" points="1488.5,-406.1 1485,-396.1 1481.5,-406.1 1488.5,-406.1"/>
</g>
<!-- [root] var.cluster -->
<g id="node54" class="node">
<title>[root] var.cluster</title>
<polygon fill="none" stroke="black" points="1035,-180 949,-180 949,-144 1041,-144 1041,-174 1035,-180"/>
<polyline fill="none" stroke="black" points="1035,-180 1035,-174 "/>
<polyline fill="none" stroke="black" points="1041,-174 1035,-174 "/>
<text text-anchor="middle" x="995" y="-158.3" font-family="Times,serif" font-size="14.00">var.cluster</text>
</g>
<!-- [root] aws_security_group_rule.eks_node_egress_custom (expand)&#45;&gt;[root] var.cluster -->
<g id="edge37" class="edge">
<title>[root] aws_security_group_rule.eks_node_egress_custom (expand)&#45;&gt;[root] var.cluster</title>
<path fill="none" stroke="black" d="M1391.15,-431.97C1358.31,-423.81 1321.94,-412.18 1291,-396 1268.91,-384.45 1270.54,-370.63 1248,-360 1169.08,-322.78 1121.78,-380.16 1055,-324 1014.86,-290.25 1001.56,-226.92 997.16,-190.56"/>
<polygon fill="black" stroke="black" points="1000.6,-189.78 996.06,-180.2 993.63,-190.52 1000.6,-189.78"/>
</g>
<!-- [root] aws_security_group_rule.eks_node_egress_custom_to_sg (expand) -->
<g id="node7" class="node">
<title>[root] aws_security_group_rule.eks_node_egress_custom_to_sg (expand)</title>
<polygon fill="none" stroke="black" points="880.5,-468 461.5,-468 461.5,-432 880.5,-432 880.5,-468"/>
<text text-anchor="middle" x="671" y="-446.3" font-family="Times,serif" font-size="14.00">aws_security_group_rule.eks_node_egress_custom_to_sg</text>
</g>
<!-- [root] aws_security_group_rule.eks_node_egress_custom_to_sg (expand)&#45;&gt;[root] provider[&quot;registry.terraform.io/hashicorp/aws&quot;] -->
<g id="edge38" class="edge">
<title>[root] aws_security_group_rule.eks_node_egress_custom_to_sg (expand)&#45;&gt;[root] provider[&quot;registry.terraform.io/hashicorp/aws&quot;]</title>
<path fill="none" stroke="black" d="M565.22,-431.93C496.26,-414.07 419,-378.18 419,-307 419,-307 419,-307 419,-233 419,-148.43 656.05,-113.92 826.01,-100.06"/>
<polygon fill="black" stroke="black" points="826.39,-103.54 836.08,-99.25 825.83,-96.56 826.39,-103.54"/>
</g>
<!-- [root] var.DESTINATION_EGRESS_SECURITY_GROUPS -->
<g id="node27" class="node">
<title>[root] var.DESTINATION_EGRESS_SECURITY_GROUPS</title>
<polygon fill="none" stroke="black" points="849,-396 485,-396 485,-360 855,-360 855,-390 849,-396"/>
<polyline fill="none" stroke="black" points="849,-396 849,-390 "/>
<polyline fill="none" stroke="black" points="855,-390 849,-390 "/>
<text text-anchor="middle" x="670" y="-374.3" font-family="Times,serif" font-size="14.00">var.DESTINATION_EGRESS_SECURITY_GROUPS</text>
</g>
<!-- [root] aws_security_group_rule.eks_node_egress_custom_to_sg (expand)&#45;&gt;[root] var.DESTINATION_EGRESS_SECURITY_GROUPS -->
<g id="edge39" class="edge">
<title>[root] aws_security_group_rule.eks_node_egress_custom_to_sg (expand)&#45;&gt;[root] var.DESTINATION_EGRESS_SECURITY_GROUPS</title>
<path fill="none" stroke="black" d="M670.75,-431.7C670.64,-423.98 670.51,-414.71 670.39,-406.11"/>
<polygon fill="black" stroke="black" points="673.89,-406.05 670.24,-396.1 666.89,-406.15 673.89,-406.05"/>
</g>
<!-- [root] aws_security_group_rule.eks_node_egress_custom_to_sg (expand)&#45;&gt;[root] var.cluster -->
<g id="edge40" class="edge">
<title>[root] aws_security_group_rule.eks_node_egress_custom_to_sg (expand)&#45;&gt;[root] var.cluster</title>
<path fill="none" stroke="black" d="M791.42,-431.94C817.26,-424.1 843.07,-412.66 864,-396 935.1,-339.41 914.88,-294.3 961,-216 966.27,-207.05 972.31,-197.45 977.83,-188.9"/>
<polygon fill="black" stroke="black" points="980.8,-190.75 983.33,-180.46 974.94,-186.93 980.8,-190.75"/>
</g>
<!-- [root] aws_security_group_rule.eks_node_ingress_custom (expand) -->
<g id="node8" class="node">
<title>[root] aws_security_group_rule.eks_node_ingress_custom (expand)</title>
<polygon fill="none" stroke="black" points="1279,-468 899,-468 899,-432 1279,-432 1279,-468"/>
<text text-anchor="middle" x="1089" y="-446.3" font-family="Times,serif" font-size="14.00">aws_security_group_rule.eks_node_ingress_custom</text>
</g>
<!-- [root] aws_security_group_rule.eks_node_ingress_custom (expand)&#45;&gt;[root] provider[&quot;registry.terraform.io/hashicorp/aws&quot;] -->
<g id="edge41" class="edge">
<title>[root] aws_security_group_rule.eks_node_ingress_custom (expand)&#45;&gt;[root] provider[&quot;registry.terraform.io/hashicorp/aws&quot;]</title>
<path fill="none" stroke="black" d="M1020.63,-431.93C999.15,-423.88 976.71,-412.33 960,-396 929.11,-365.82 921,-350.19 921,-307 921,-307 921,-307 921,-233 921,-192.55 920.36,-179.36 940,-144 946.34,-132.59 955.94,-122.12 965.35,-113.55"/>
<polygon fill="black" stroke="black" points="967.85,-116.01 973.13,-106.82 963.28,-110.71 967.85,-116.01"/>
</g>
<!-- [root] var.CUSTOM_INGRESS_ACCESS -->
<g id="node24" class="node">
<title>[root] var.CUSTOM_INGRESS_ACCESS</title>
<polygon fill="none" stroke="black" points="1232.5,-396 987.5,-396 987.5,-360 1238.5,-360 1238.5,-390 1232.5,-396"/>
<polyline fill="none" stroke="black" points="1232.5,-396 1232.5,-390 "/>
<polyline fill="none" stroke="black" points="1238.5,-390 1232.5,-390 "/>
<text text-anchor="middle" x="1113" y="-374.3" font-family="Times,serif" font-size="14.00">var.CUSTOM_INGRESS_ACCESS</text>
</g>
<!-- [root] aws_security_group_rule.eks_node_ingress_custom (expand)&#45;&gt;[root] var.CUSTOM_INGRESS_ACCESS -->
<g id="edge42" class="edge">
<title>[root] aws_security_group_rule.eks_node_ingress_custom (expand)&#45;&gt;[root] var.CUSTOM_INGRESS_ACCESS</title>
<path fill="none" stroke="black" d="M1094.93,-431.7C1097.61,-423.9 1100.83,-414.51 1103.8,-405.83"/>
<polygon fill="black" stroke="black" points="1107.2,-406.7 1107.14,-396.1 1100.58,-404.43 1107.2,-406.7"/>
</g>
<!-- [root] aws_security_group_rule.eks_node_ingress_custom (expand)&#45;&gt;[root] var.cluster -->
<g id="edge43" class="edge">
<title>[root] aws_security_group_rule.eks_node_ingress_custom (expand)&#45;&gt;[root] var.cluster</title>
<path fill="none" stroke="black" d="M1024.18,-431.95C1006.5,-424 989.37,-412.51 979,-396 938.39,-331.36 966.16,-235.78 983.7,-189.73"/>
<polygon fill="black" stroke="black" points="987.06,-190.75 987.47,-180.17 980.55,-188.19 987.06,-190.75"/>
</g>
<!-- [root] aws_security_group_rule.eks_node_ingress_custom_from_sg (expand) -->
<g id="node9" class="node">
<title>[root] aws_security_group_rule.eks_node_ingress_custom_from_sg (expand)</title>
<polygon fill="none" stroke="black" points="444,-468 0,-468 0,-432 444,-432 444,-468"/>
<text text-anchor="middle" x="222" y="-446.3" font-family="Times,serif" font-size="14.00">aws_security_group_rule.eks_node_ingress_custom_from_sg</text>
</g>
<!-- [root] aws_security_group_rule.eks_node_ingress_custom_from_sg (expand)&#45;&gt;[root] provider[&quot;registry.terraform.io/hashicorp/aws&quot;] -->
<g id="edge44" class="edge">
<title>[root] aws_security_group_rule.eks_node_ingress_custom_from_sg (expand)&#45;&gt;[root] provider[&quot;registry.terraform.io/hashicorp/aws&quot;]</title>
<path fill="none" stroke="black" d="M100.9,-431.98C79.57,-424.05 59.32,-412.58 44,-396 16.55,-366.29 25,-347.45 25,-307 25,-307 25,-307 25,-233 25,-153.85 537.13,-114.75 817.15,-99.29"/>
<polygon fill="black" stroke="black" points="817.63,-102.77 827.42,-98.73 817.25,-95.78 817.63,-102.77"/>
</g>
<!-- [root] var.SOURCE_INGRESS_SECURITY_GROUPS -->
<g id="node47" class="node">
<title>[root] var.SOURCE_INGRESS_SECURITY_GROUPS</title>
<polygon fill="none" stroke="black" points="384.5,-396 53.5,-396 53.5,-360 390.5,-360 390.5,-390 384.5,-396"/>
<polyline fill="none" stroke="black" points="384.5,-396 384.5,-390 "/>
<polyline fill="none" stroke="black" points="390.5,-390 384.5,-390 "/>
<text text-anchor="middle" x="222" y="-374.3" font-family="Times,serif" font-size="14.00">var.SOURCE_INGRESS_SECURITY_GROUPS</text>
</g>
<!-- [root] aws_security_group_rule.eks_node_ingress_custom_from_sg (expand)&#45;&gt;[root] var.SOURCE_INGRESS_SECURITY_GROUPS -->
<g id="edge45" class="edge">
<title>[root] aws_security_group_rule.eks_node_ingress_custom_from_sg (expand)&#45;&gt;[root] var.SOURCE_INGRESS_SECURITY_GROUPS</title>
<path fill="none" stroke="black" d="M222,-431.7C222,-423.98 222,-414.71 222,-406.11"/>
<polygon fill="black" stroke="black" points="225.5,-406.1 222,-396.1 218.5,-406.1 225.5,-406.1"/>
</g>
<!-- [root] aws_security_group_rule.eks_node_ingress_custom_from_sg (expand)&#45;&gt;[root] var.cluster -->
<g id="edge46" class="edge">
<title>[root] aws_security_group_rule.eks_node_ingress_custom_from_sg (expand)&#45;&gt;[root] var.cluster</title>
<path fill="none" stroke="black" d="M287.08,-431.98C320.86,-422.52 362.58,-409.88 399,-396 434.3,-382.55 441.21,-374.71 476,-360 642.49,-289.6 843.61,-216.61 939.25,-182.62"/>
<polygon fill="black" stroke="black" points="940.47,-185.9 948.72,-179.25 938.13,-179.3 940.47,-185.9"/>
</g>
<!-- [root] data.aws_caller_identity.current (expand) -->
<g id="node11" class="node">
<title>[root] data.aws_caller_identity.current (expand)</title>
<polygon fill="none" stroke="black" points="2135.5,-180 1890.5,-180 1890.5,-144 2135.5,-144 2135.5,-180"/>
<text text-anchor="middle" x="2013" y="-158.3" font-family="Times,serif" font-size="14.00">data.aws_caller_identity.current</text>
</g>
<!-- [root] data.aws_ami.eks_node (expand)&#45;&gt;[root] data.aws_caller_identity.current (expand) -->
<g id="edge47" class="edge">
<title>[root] data.aws_ami.eks_node (expand)&#45;&gt;[root] data.aws_caller_identity.current (expand)</title>
<path fill="none" stroke="black" d="M2611.39,-217.26C2608.22,-216.82 2605.09,-216.4 2602,-216 2445.92,-195.87 2265.58,-180.85 2146,-172.03"/>
<polygon fill="black" stroke="black" points="2145.93,-168.51 2135.7,-171.27 2145.41,-175.5 2145.93,-168.51"/>
</g>
<!-- [root] var.KUBERNETES_VERSION -->
<g id="node40" class="node">
<title>[root] var.KUBERNETES_VERSION</title>
<polygon fill="none" stroke="black" points="2570,-180 2352,-180 2352,-144 2576,-144 2576,-174 2570,-180"/>
<polyline fill="none" stroke="black" points="2570,-180 2570,-174 "/>
<polyline fill="none" stroke="black" points="2576,-174 2570,-174 "/>
<text text-anchor="middle" x="2464" y="-158.3" font-family="Times,serif" font-size="14.00">var.KUBERNETES_VERSION</text>
</g>
<!-- [root] data.aws_ami.eks_node (expand)&#45;&gt;[root] var.KUBERNETES_VERSION -->
<g id="edge48" class="edge">
<title>[root] data.aws_ami.eks_node (expand)&#45;&gt;[root] var.KUBERNETES_VERSION</title>
<path fill="none" stroke="black" d="M2644.84,-215.97C2610.87,-206.01 2567.82,-193.41 2532.24,-182.99"/>
<polygon fill="black" stroke="black" points="2533,-179.56 2522.42,-180.11 2531.03,-186.28 2533,-179.56"/>
</g>
<!-- [root] var.globals -->
<g id="node55" class="node">
<title>[root] var.globals</title>
<polygon fill="none" stroke="black" points="3811,-36 3723,-36 3723,0 3817,0 3817,-30 3811,-36"/>
<polyline fill="none" stroke="black" points="3811,-36 3811,-30 "/>
<polyline fill="none" stroke="black" points="3817,-30 3811,-30 "/>
<text text-anchor="middle" x="3770" y="-14.3" font-family="Times,serif" font-size="14.00">var.globals</text>
</g>
<!-- [root] data.aws_ami.eks_node (expand)&#45;&gt;[root] var.globals -->
<g id="edge49" class="edge">
<title>[root] data.aws_ami.eks_node (expand)&#45;&gt;[root] var.globals</title>
<path fill="none" stroke="black" d="M2682.74,-215.97C2647.31,-184.23 2581.61,-115.34 2623,-72 2660.98,-32.22 3486.2,-21.64 3712.85,-19.48"/>
<polygon fill="black" stroke="black" points="3712.91,-22.98 3722.88,-19.38 3712.84,-15.98 3712.91,-22.98"/>
</g>
<!-- [root] data.aws_caller_identity.current (expand)&#45;&gt;[root] provider[&quot;registry.terraform.io/hashicorp/aws&quot;] -->
<g id="edge50" class="edge">
<title>[root] data.aws_caller_identity.current (expand)&#45;&gt;[root] provider[&quot;registry.terraform.io/hashicorp/aws&quot;]</title>
<path fill="none" stroke="black" d="M1890.43,-151.84C1855.41,-149.26 1817.2,-146.48 1782,-144 1560.78,-128.41 1304.51,-111.34 1146.06,-100.89"/>
<polygon fill="black" stroke="black" points="1145.97,-97.38 1135.76,-100.21 1145.51,-104.36 1145.97,-97.38"/>
</g>
<!-- [root] provider[&quot;registry.terraform.io/hashicorp/random&quot;] -->
<g id="node13" class="node">
<title>[root] provider[&quot;registry.terraform.io/hashicorp/random&quot;]</title>
<polygon fill="none" stroke="black" points="3392,-108 3041.6,-90 3392,-72 3742.4,-90 3392,-108"/>
<text text-anchor="middle" x="3392" y="-86.3" font-family="Times,serif" font-size="14.00">provider[&quot;registry.terraform.io/hashicorp/random&quot;]</text>
</g>
<!-- [root] random_string.key (expand)&#45;&gt;[root] provider[&quot;registry.terraform.io/hashicorp/random&quot;] -->
<g id="edge80" class="edge">
<title>[root] random_string.key (expand)&#45;&gt;[root] provider[&quot;registry.terraform.io/hashicorp/random&quot;]</title>
<path fill="none" stroke="black" d="M2932.24,-151.16C3025.22,-138.99 3183.92,-118.23 3288.38,-104.56"/>
<polygon fill="black" stroke="black" points="3288.86,-108.03 3298.32,-103.26 3287.95,-101.08 3288.86,-108.03"/>
</g>
<!-- [root] local.environment_name (expand) -->
<g id="node59" class="node">
<title>[root] local.environment_name (expand)</title>
<ellipse fill="none" stroke="black" cx="2828" cy="-90" rx="196.07" ry="18"/>
<text text-anchor="middle" x="2828" y="-86.3" font-family="Times,serif" font-size="14.00">[root] local.environment_name (expand)</text>
</g>
<!-- [root] random_string.key (expand)&#45;&gt;[root] local.environment_name (expand) -->
<g id="edge79" class="edge">
<title>[root] random_string.key (expand)&#45;&gt;[root] local.environment_name (expand)</title>
<path fill="none" stroke="black" d="M2849.83,-143.7C2846.57,-135.81 2842.63,-126.3 2839,-117.55"/>
<polygon fill="black" stroke="black" points="2842.15,-116 2835.09,-108.1 2835.68,-118.68 2842.15,-116"/>
</g>
<!-- [root] var.ADDITIONAL_SSH_KEYS -->
<g id="node15" class="node">
<title>[root] var.ADDITIONAL_SSH_KEYS</title>
<polygon fill="none" stroke="black" points="5451.5,-180 5236.5,-180 5236.5,-144 5457.5,-144 5457.5,-174 5451.5,-180"/>
<polyline fill="none" stroke="black" points="5451.5,-180 5451.5,-174 "/>
<polyline fill="none" stroke="black" points="5457.5,-174 5451.5,-174 "/>
<text text-anchor="middle" x="5347" y="-158.3" font-family="Times,serif" font-size="14.00">var.ADDITIONAL_SSH_KEYS</text>
</g>
<!-- [root] var.CRON_JOBS_END_HOURS -->
<g id="node21" class="node">
<title>[root] var.CRON_JOBS_END_HOURS</title>
<polygon fill="none" stroke="black" points="5702.5,-180 5475.5,-180 5475.5,-144 5708.5,-144 5708.5,-174 5702.5,-180"/>
<polyline fill="none" stroke="black" points="5702.5,-180 5702.5,-174 "/>
<polyline fill="none" stroke="black" points="5708.5,-174 5702.5,-174 "/>
<text text-anchor="middle" x="5592" y="-158.3" font-family="Times,serif" font-size="14.00">var.CRON_JOBS_END_HOURS</text>
</g>
<!-- [root] var.CRON_JOBS_START_HOURS -->
<g id="node22" class="node">
<title>[root] var.CRON_JOBS_START_HOURS</title>
<polygon fill="none" stroke="black" points="3357.5,-180 3116.5,-180 3116.5,-144 3363.5,-144 3363.5,-174 3357.5,-180"/>
<polyline fill="none" stroke="black" points="3357.5,-180 3357.5,-174 "/>
<polyline fill="none" stroke="black" points="3363.5,-174 3357.5,-174 "/>
<text text-anchor="middle" x="3240" y="-158.3" font-family="Times,serif" font-size="14.00">var.CRON_JOBS_START_HOURS</text>
</g>
<!-- [root] var.DOCKER_LOG_ROTATION_DRIVER -->
<g id="node28" class="node">
<title>[root] var.DOCKER_LOG_ROTATION_DRIVER</title>
<polygon fill="none" stroke="black" points="3668.5,-180 3381.5,-180 3381.5,-144 3674.5,-144 3674.5,-174 3668.5,-180"/>
<polyline fill="none" stroke="black" points="3668.5,-180 3668.5,-174 "/>
<polyline fill="none" stroke="black" points="3674.5,-174 3668.5,-174 "/>
<text text-anchor="middle" x="3528" y="-158.3" font-family="Times,serif" font-size="14.00">var.DOCKER_LOG_ROTATION_DRIVER</text>
</g>
<!-- [root] var.DOCKER_LOG_ROTATION_ENABLED -->
<g id="node29" class="node">
<title>[root] var.DOCKER_LOG_ROTATION_ENABLED</title>
<polygon fill="none" stroke="black" points="3995.5,-180 3692.5,-180 3692.5,-144 4001.5,-144 4001.5,-174 3995.5,-180"/>
<polyline fill="none" stroke="black" points="3995.5,-180 3995.5,-174 "/>
<polyline fill="none" stroke="black" points="4001.5,-174 3995.5,-174 "/>
<text text-anchor="middle" x="3847" y="-158.3" font-family="Times,serif" font-size="14.00">var.DOCKER_LOG_ROTATION_ENABLED</text>
</g>
<!-- [root] var.DOCKER_LOG_ROTATION_MAX_FILE -->
<g id="node30" class="node">
<title>[root] var.DOCKER_LOG_ROTATION_MAX_FILE</title>
<polygon fill="none" stroke="black" points="4324.5,-180 4019.5,-180 4019.5,-144 4330.5,-144 4330.5,-174 4324.5,-180"/>
<polyline fill="none" stroke="black" points="4324.5,-180 4324.5,-174 "/>
<polyline fill="none" stroke="black" points="4330.5,-174 4324.5,-174 "/>
<text text-anchor="middle" x="4175" y="-158.3" font-family="Times,serif" font-size="14.00">var.DOCKER_LOG_ROTATION_MAX_FILE</text>
</g>
<!-- [root] var.DOCKER_LOG_ROTATION_MAX_SIZE -->
<g id="node31" class="node">
<title>[root] var.DOCKER_LOG_ROTATION_MAX_SIZE</title>
<polygon fill="none" stroke="black" points="4653.5,-180 4348.5,-180 4348.5,-144 4659.5,-144 4659.5,-174 4653.5,-180"/>
<polyline fill="none" stroke="black" points="4653.5,-180 4653.5,-174 "/>
<polyline fill="none" stroke="black" points="4659.5,-174 4653.5,-174 "/>
<text text-anchor="middle" x="4504" y="-158.3" font-family="Times,serif" font-size="14.00">var.DOCKER_LOG_ROTATION_MAX_SIZE</text>
</g>
<!-- [root] var.DOCKER_REGISTRY_CREDENTIALS -->
<g id="node32" class="node">
<title>[root] var.DOCKER_REGISTRY_CREDENTIALS</title>
<polygon fill="none" stroke="black" points="4976,-180 4678,-180 4678,-144 4982,-144 4982,-174 4976,-180"/>
<polyline fill="none" stroke="black" points="4976,-180 4976,-174 "/>
<polyline fill="none" stroke="black" points="4982,-174 4976,-174 "/>
<text text-anchor="middle" x="4830" y="-158.3" font-family="Times,serif" font-size="14.00">var.DOCKER_REGISTRY_CREDENTIALS</text>
</g>
<!-- [root] var.KUBELET_EXTRA_ARGS -->
<g id="node39" class="node">
<title>[root] var.KUBELET_EXTRA_ARGS</title>
<polygon fill="none" stroke="black" points="5212,-180 5000,-180 5000,-144 5218,-144 5218,-174 5212,-180"/>
<polyline fill="none" stroke="black" points="5212,-180 5212,-174 "/>
<polyline fill="none" stroke="black" points="5218,-174 5212,-174 "/>
<text text-anchor="middle" x="5109" y="-158.3" font-family="Times,serif" font-size="14.00">var.KUBELET_EXTRA_ARGS</text>
</g>
<!-- [root] var.MODULE_VERSION -->
<g id="node43" class="node">
<title>[root] var.MODULE_VERSION</title>
<polygon fill="none" stroke="black" points="5907.5,-180 5726.5,-180 5726.5,-144 5913.5,-144 5913.5,-174 5907.5,-180"/>
<polyline fill="none" stroke="black" points="5907.5,-180 5907.5,-174 "/>
<polyline fill="none" stroke="black" points="5913.5,-174 5907.5,-174 "/>
<text text-anchor="middle" x="5820" y="-158.3" font-family="Times,serif" font-size="14.00">var.MODULE_VERSION</text>
</g>
<!-- [root] local.kms_shared_ami_key_id (expand)&#45;&gt;[root] var.globals -->
<g id="edge54" class="edge">
<title>[root] local.kms_shared_ami_key_id (expand)&#45;&gt;[root] var.globals</title>
<path fill="none" stroke="black" d="M6036.99,-76.93C6009.72,-75.04 5981.52,-73.29 5955,-72 5109.7,-30.8 4078.81,-21.16 3827.32,-19.36"/>
<polygon fill="black" stroke="black" points="3827.34,-15.86 3817.31,-19.29 3827.29,-22.86 3827.34,-15.86"/>
</g>
<!-- [root] local.default_tags (expand)&#45;&gt;[root] var.MODULE_VERSION -->
<g id="edge51" class="edge">
<title>[root] local.default_tags (expand)&#45;&gt;[root] var.MODULE_VERSION</title>
<path fill="none" stroke="black" d="M5795.16,-215.7C5798.91,-207.73 5803.45,-198.1 5807.62,-189.26"/>
<polygon fill="black" stroke="black" points="5810.84,-190.64 5811.94,-180.1 5804.51,-187.66 5810.84,-190.64"/>
</g>
<!-- [root] local.default_tags (expand)&#45;&gt;[root] var.globals -->
<g id="edge52" class="edge">
<title>[root] local.default_tags (expand)&#45;&gt;[root] var.globals</title>
<path fill="none" stroke="black" d="M5869.22,-218.4C5890.19,-210.56 5910.34,-198.51 5923,-180 5932.03,-166.79 5933.98,-155.64 5923,-144 5848.96,-65.54 4162.85,-27.03 3827.64,-20.14"/>
<polygon fill="black" stroke="black" points="3827.27,-16.63 3817.2,-19.93 3827.13,-23.63 3827.27,-16.63"/>
</g>
<!-- [root] local.userdata (expand)&#45;&gt;[root] var.ADDITIONAL_SSH_KEYS -->
<g id="edge55" class="edge">
<title>[root] local.userdata (expand)&#45;&gt;[root] var.ADDITIONAL_SSH_KEYS</title>
<path fill="none" stroke="black" d="M4926.7,-220.31C5004.67,-210.03 5117.46,-195.04 5226.03,-180.13"/>
<polygon fill="black" stroke="black" points="5226.75,-183.56 5236.18,-178.73 5225.8,-176.63 5226.75,-183.56"/>
</g>
<!-- [root] local.userdata (expand)&#45;&gt;[root] var.CRON_JOBS_END_HOURS -->
<g id="edge56" class="edge">
<title>[root] local.userdata (expand)&#45;&gt;[root] var.CRON_JOBS_END_HOURS</title>
<path fill="none" stroke="black" d="M4955.89,-224.47C5082.19,-215.47 5282.55,-199.96 5465.19,-180.17"/>
<polygon fill="black" stroke="black" points="5465.69,-183.64 5475.25,-179.07 5464.93,-176.68 5465.69,-183.64"/>
</g>
<!-- [root] local.userdata (expand)&#45;&gt;[root] var.CRON_JOBS_START_HOURS -->
<g id="edge57" class="edge">
<title>[root] local.userdata (expand)&#45;&gt;[root] var.CRON_JOBS_START_HOURS</title>
<path fill="none" stroke="black" d="M4727.26,-221.02C4707.61,-219.07 4687.19,-217.27 4668,-216 4096.85,-178.15 3948.78,-224.01 3374.06,-180.03"/>
<polygon fill="black" stroke="black" points="3374.09,-176.52 3363.85,-179.24 3373.55,-183.5 3374.09,-176.52"/>
</g>
<!-- [root] local.userdata (expand)&#45;&gt;[root] var.DOCKER_LOG_ROTATION_DRIVER -->
<g id="edge58" class="edge">
<title>[root] local.userdata (expand)&#45;&gt;[root] var.DOCKER_LOG_ROTATION_DRIVER</title>
<path fill="none" stroke="black" d="M4726.39,-221.07C4707,-219.14 4686.9,-217.34 4668,-216 4234.77,-185.38 4122.17,-211.33 3684.6,-180.01"/>
<polygon fill="black" stroke="black" points="3684.76,-176.51 3674.53,-179.28 3684.25,-183.49 3684.76,-176.51"/>
</g>
<!-- [root] local.userdata (expand)&#45;&gt;[root] var.DOCKER_LOG_ROTATION_ENABLED -->
<g id="edge59" class="edge">
<title>[root] local.userdata (expand)&#45;&gt;[root] var.DOCKER_LOG_ROTATION_ENABLED</title>
<path fill="none" stroke="black" d="M4725.06,-221.22C4706.09,-219.31 4686.46,-217.47 4668,-216 4379.76,-192.99 4304.21,-202.85 4011.97,-180.05"/>
<polygon fill="black" stroke="black" points="4012.17,-176.56 4001.93,-179.26 4011.62,-183.54 4012.17,-176.56"/>
</g>
<!-- [root] local.userdata (expand)&#45;&gt;[root] var.DOCKER_LOG_ROTATION_MAX_FILE -->
<g id="edge60" class="edge">
<title>[root] local.userdata (expand)&#45;&gt;[root] var.DOCKER_LOG_ROTATION_MAX_FILE</title>
<path fill="none" stroke="black" d="M4722.57,-221.52C4618.88,-210.44 4460.39,-193.5 4340.56,-180.69"/>
<polygon fill="black" stroke="black" points="4340.87,-177.21 4330.55,-179.62 4340.12,-184.17 4340.87,-177.21"/>
</g>
<!-- [root] local.userdata (expand)&#45;&gt;[root] var.DOCKER_LOG_ROTATION_MAX_SIZE -->
<g id="edge61" class="edge">
<title>[root] local.userdata (expand)&#45;&gt;[root] var.DOCKER_LOG_ROTATION_MAX_SIZE</title>
<path fill="none" stroke="black" d="M4760.46,-218.07C4711.71,-207.6 4646.12,-193.52 4593.47,-182.21"/>
<polygon fill="black" stroke="black" points="4593.97,-178.74 4583.46,-180.06 4592.5,-185.58 4593.97,-178.74"/>
</g>
<!-- [root] local.userdata (expand)&#45;&gt;[root] var.DOCKER_REGISTRY_CREDENTIALS -->
<g id="edge62" class="edge">
<title>[root] local.userdata (expand)&#45;&gt;[root] var.DOCKER_REGISTRY_CREDENTIALS</title>
<path fill="none" stroke="black" d="M4830,-215.7C4830,-207.98 4830,-198.71 4830,-190.11"/>
<polygon fill="black" stroke="black" points="4833.5,-190.1 4830,-180.1 4826.5,-190.1 4833.5,-190.1"/>
</g>
<!-- [root] local.userdata (expand)&#45;&gt;[root] var.KUBELET_EXTRA_ARGS -->
<g id="edge63" class="edge">
<title>[root] local.userdata (expand)&#45;&gt;[root] var.KUBELET_EXTRA_ARGS</title>
<path fill="none" stroke="black" d="M4891.57,-217.55C4932.75,-207.22 4987.26,-193.54 5031.4,-182.47"/>
<polygon fill="black" stroke="black" points="5032.38,-185.83 5041.23,-180 5030.68,-179.04 5032.38,-185.83"/>
</g>
<!-- [root] local.userdata (expand)&#45;&gt;[root] var.cluster -->
<g id="edge64" class="edge">
<title>[root] local.userdata (expand)&#45;&gt;[root] var.cluster</title>
<path fill="none" stroke="black" d="M4719.75,-221.94C4692.11,-219.57 4662.49,-217.36 4635,-216 3316.52,-150.63 2984.87,-204.74 1665,-180 1437.45,-175.73 1166.49,-168.06 1051.29,-164.68"/>
<polygon fill="black" stroke="black" points="1051.39,-161.18 1041.3,-164.39 1051.19,-168.18 1051.39,-161.18"/>
</g>
<!-- [root] local.userdata (expand)&#45;&gt;[root] var.globals -->
<g id="edge65" class="edge">
<title>[root] local.userdata (expand)&#45;&gt;[root] var.globals</title>
<path fill="none" stroke="black" d="M4727.27,-220.95C4707.62,-219 4687.19,-217.23 4668,-216 4624.74,-213.24 3138.29,-211 3108,-180 3096.82,-168.56 3097.01,-155.63 3108,-144 3157.16,-92.01 3696.65,-154.55 3751,-108 3768.39,-93.1 3772.18,-66.54 3772.2,-46.3"/>
<polygon fill="black" stroke="black" points="3775.69,-46 3771.89,-36.11 3768.69,-46.21 3775.69,-46"/>
</g>
<!-- [root] local.environment_name (expand)&#45;&gt;[root] var.globals -->
<g id="edge53" class="edge">
<title>[root] local.environment_name (expand)&#45;&gt;[root] var.globals</title>
<path fill="none" stroke="black" d="M2966.93,-77.27C2989.03,-75.47 3011.64,-73.65 3033,-72 3286.47,-52.38 3589.17,-31.37 3712.98,-22.89"/>
<polygon fill="black" stroke="black" points="3713.26,-26.38 3722.99,-22.2 3712.78,-19.39 3713.26,-26.38"/>
</g>
<!-- [root] meta.count&#45;boundary (EachMode fixup) -->
<g id="node60" class="node">
<title>[root] meta.count&#45;boundary (EachMode fixup)</title>
<ellipse fill="none" stroke="black" cx="1622" cy="-522" rx="222.86" ry="18"/>
<text text-anchor="middle" x="1622" y="-518.3" font-family="Times,serif" font-size="14.00">[root] meta.count&#45;boundary (EachMode fixup)</text>
</g>
<!-- [root] meta.count&#45;boundary (EachMode fixup)&#45;&gt;[root] aws_kms_grant.autoscaling (expand) -->
<g id="edge66" class="edge">
<title>[root] meta.count&#45;boundary (EachMode fixup)&#45;&gt;[root] aws_kms_grant.autoscaling (expand)</title>
<path fill="none" stroke="black" d="M1663.92,-504.23C1688.13,-494.55 1718.79,-482.28 1744.59,-471.97"/>
<polygon fill="black" stroke="black" points="1746.22,-475.08 1754.21,-468.12 1743.62,-468.58 1746.22,-475.08"/>
</g>
<!-- [root] meta.count&#45;boundary (EachMode fixup)&#45;&gt;[root] aws_kms_grant.autoscaling_shared (expand) -->
<g id="edge67" class="edge">
<title>[root] meta.count&#45;boundary (EachMode fixup)&#45;&gt;[root] aws_kms_grant.autoscaling_shared (expand)</title>
<path fill="none" stroke="black" d="M1716.97,-505.68C1782.72,-495.08 1870.61,-480.9 1940.42,-469.64"/>
<polygon fill="black" stroke="black" points="1941.27,-473.05 1950.59,-468 1940.16,-466.14 1941.27,-473.05"/>
</g>
<!-- [root] meta.count&#45;boundary (EachMode fixup)&#45;&gt;[root] aws_security_group_rule.eks_node_egress_custom (expand) -->
<g id="edge68" class="edge">
<title>[root] meta.count&#45;boundary (EachMode fixup)&#45;&gt;[root] aws_security_group_rule.eks_node_egress_custom (expand)</title>
<path fill="none" stroke="black" d="M1588.84,-504.05C1570.38,-494.62 1547.21,-482.78 1527.44,-472.68"/>
<polygon fill="black" stroke="black" points="1528.83,-469.46 1518.33,-468.03 1525.65,-475.7 1528.83,-469.46"/>
</g>
<!-- [root] meta.count&#45;boundary (EachMode fixup)&#45;&gt;[root] aws_security_group_rule.eks_node_egress_custom_to_sg (expand) -->
<g id="edge69" class="edge">
<title>[root] meta.count&#45;boundary (EachMode fixup)&#45;&gt;[root] aws_security_group_rule.eks_node_egress_custom_to_sg (expand)</title>
<path fill="none" stroke="black" d="M1463.2,-509.34C1438.69,-507.54 1413.66,-505.72 1390,-504 1171.04,-488.1 1113.84,-484.72 890.59,-468.04"/>
<polygon fill="black" stroke="black" points="890.75,-464.54 880.52,-467.29 890.23,-471.52 890.75,-464.54"/>
</g>
<!-- [root] meta.count&#45;boundary (EachMode fixup)&#45;&gt;[root] aws_security_group_rule.eks_node_ingress_custom (expand) -->
<g id="edge70" class="edge">
<title>[root] meta.count&#45;boundary (EachMode fixup)&#45;&gt;[root] aws_security_group_rule.eks_node_ingress_custom (expand)</title>
<path fill="none" stroke="black" d="M1510.59,-506.37C1428.61,-495.6 1316.59,-480.89 1228.62,-469.34"/>
<polygon fill="black" stroke="black" points="1228.94,-465.85 1218.56,-468.02 1228.02,-472.79 1228.94,-465.85"/>
</g>
<!-- [root] meta.count&#45;boundary (EachMode fixup)&#45;&gt;[root] aws_security_group_rule.eks_node_ingress_custom_from_sg (expand) -->
<g id="edge71" class="edge">
<title>[root] meta.count&#45;boundary (EachMode fixup)&#45;&gt;[root] aws_security_group_rule.eks_node_ingress_custom_from_sg (expand)</title>
<path fill="none" stroke="black" d="M1467.93,-508.96C1441.93,-507.14 1415.2,-505.41 1390,-504 977.25,-480.96 870.81,-491.13 454.42,-468.07"/>
<polygon fill="black" stroke="black" points="454.39,-464.56 444.21,-467.5 454,-471.55 454.39,-464.56"/>
</g>
<!-- [root] provider[&quot;registry.terraform.io/hashicorp/aws&quot;] (close) -->
<g id="node61" class="node">
<title>[root] provider[&quot;registry.terraform.io/hashicorp/aws&quot;] (close)</title>
<ellipse fill="none" stroke="black" cx="1089" cy="-522" rx="291.65" ry="18"/>
<text text-anchor="middle" x="1089" y="-518.3" font-family="Times,serif" font-size="14.00">[root] provider[&quot;registry.terraform.io/hashicorp/aws&quot;] (close)</text>
</g>
<!-- [root] provider[&quot;registry.terraform.io/hashicorp/aws&quot;] (close)&#45;&gt;[root] aws_kms_grant.autoscaling (expand) -->
<g id="edge72" class="edge">
<title>[root] provider[&quot;registry.terraform.io/hashicorp/aws&quot;] (close)&#45;&gt;[root] aws_kms_grant.autoscaling (expand)</title>
<path fill="none" stroke="black" d="M1267.68,-507.73C1382.87,-498.52 1536.11,-485.07 1680.86,-468.1"/>
<polygon fill="black" stroke="black" points="1681.3,-471.57 1690.82,-466.92 1680.48,-464.62 1681.3,-471.57"/>
</g>
<!-- [root] provider[&quot;registry.terraform.io/hashicorp/aws&quot;] (close)&#45;&gt;[root] aws_kms_grant.autoscaling_shared (expand) -->
<g id="edge73" class="edge">
<title>[root] provider[&quot;registry.terraform.io/hashicorp/aws&quot;] (close)&#45;&gt;[root] aws_kms_grant.autoscaling_shared (expand)</title>
<path fill="none" stroke="black" d="M1293.21,-509.1C1491.77,-497.3 1780.7,-479.51 1911.6,-467.99"/>
<polygon fill="black" stroke="black" points="1912.24,-471.45 1921.89,-467.07 1911.61,-464.48 1912.24,-471.45"/>
</g>
<!-- [root] provider[&quot;registry.terraform.io/hashicorp/aws&quot;] (close)&#45;&gt;[root] aws_security_group_rule.eks_node_egress_custom (expand) -->
<g id="edge74" class="edge">
<title>[root] provider[&quot;registry.terraform.io/hashicorp/aws&quot;] (close)&#45;&gt;[root] aws_security_group_rule.eks_node_egress_custom (expand)</title>
<path fill="none" stroke="black" d="M1180.35,-504.85C1239.42,-494.41 1316.54,-480.78 1378.4,-469.84"/>
<polygon fill="black" stroke="black" points="1379.35,-473.23 1388.59,-468.04 1378.13,-466.34 1379.35,-473.23"/>
</g>
<!-- [root] provider[&quot;registry.terraform.io/hashicorp/aws&quot;] (close)&#45;&gt;[root] aws_security_group_rule.eks_node_egress_custom_to_sg (expand) -->
<g id="edge75" class="edge">
<title>[root] provider[&quot;registry.terraform.io/hashicorp/aws&quot;] (close)&#45;&gt;[root] aws_security_group_rule.eks_node_egress_custom_to_sg (expand)</title>
<path fill="none" stroke="black" d="M993.36,-504.98C930.67,-494.49 848.46,-480.72 782.76,-469.72"/>
<polygon fill="black" stroke="black" points="783.22,-466.24 772.77,-468.04 782.06,-473.15 783.22,-466.24"/>
</g>
<!-- [root] provider[&quot;registry.terraform.io/hashicorp/aws&quot;] (close)&#45;&gt;[root] aws_security_group_rule.eks_node_ingress_custom (expand) -->
<g id="edge76" class="edge">
<title>[root] provider[&quot;registry.terraform.io/hashicorp/aws&quot;] (close)&#45;&gt;[root] aws_security_group_rule.eks_node_ingress_custom (expand)</title>
<path fill="none" stroke="black" d="M1089,-503.7C1089,-495.98 1089,-486.71 1089,-478.11"/>
<polygon fill="black" stroke="black" points="1092.5,-478.1 1089,-468.1 1085.5,-478.1 1092.5,-478.1"/>
</g>
<!-- [root] provider[&quot;registry.terraform.io/hashicorp/aws&quot;] (close)&#45;&gt;[root] aws_security_group_rule.eks_node_ingress_custom_from_sg (expand) -->
<g id="edge77" class="edge">
<title>[root] provider[&quot;registry.terraform.io/hashicorp/aws&quot;] (close)&#45;&gt;[root] aws_security_group_rule.eks_node_ingress_custom_from_sg (expand)</title>
<path fill="none" stroke="black" d="M919.52,-507.32C783.4,-496.33 591.2,-480.81 443.01,-468.84"/>
<polygon fill="black" stroke="black" points="443.12,-465.34 432.87,-468.03 442.56,-472.32 443.12,-465.34"/>
</g>
<!-- [root] provider[&quot;registry.terraform.io/hashicorp/random&quot;] (close) -->
<g id="node62" class="node">
<title>[root] provider[&quot;registry.terraform.io/hashicorp/random&quot;] (close)</title>
<ellipse fill="none" stroke="black" cx="3413" cy="-522" rx="309.25" ry="18"/>
<text text-anchor="middle" x="3413" y="-518.3" font-family="Times,serif" font-size="14.00">[root] provider[&quot;registry.terraform.io/hashicorp/random&quot;] (close)</text>
</g>
<!-- [root] provider[&quot;registry.terraform.io/hashicorp/random&quot;] (close)&#45;&gt;[root] random_string.key (expand) -->
<g id="edge78" class="edge">
<title>[root] provider[&quot;registry.terraform.io/hashicorp/random&quot;] (close)&#45;&gt;[root] random_string.key (expand)</title>
<path fill="none" stroke="black" d="M3704.35,-515.92C4071.18,-505.55 4654,-474.11 4654,-379 4654,-379 4654,-379 4654,-305 4654,-264.55 4666.14,-241.81 4635,-216 4602.05,-188.7 3137.74,-182.02 3095,-180 3044.32,-177.6 2987.65,-173.6 2942.33,-170.09"/>
<polygon fill="black" stroke="black" points="2942.49,-166.59 2932.25,-169.3 2941.94,-173.57 2942.49,-166.59"/>
</g>
<!-- [root] root -->
<g id="node63" class="node">
<title>[root] root</title>
<ellipse fill="none" stroke="black" cx="1622" cy="-594" rx="58.49" ry="18"/>
<text text-anchor="middle" x="1622" y="-590.3" font-family="Times,serif" font-size="14.00">[root] root</text>
</g>
<!-- [root] root&#45;&gt;[root] meta.count&#45;boundary (EachMode fixup) -->
<g id="edge81" class="edge">
<title>[root] root&#45;&gt;[root] meta.count&#45;boundary (EachMode fixup)</title>
<path fill="none" stroke="black" d="M1622,-575.7C1622,-567.98 1622,-558.71 1622,-550.11"/>
<polygon fill="black" stroke="black" points="1625.5,-550.1 1622,-540.1 1618.5,-550.1 1625.5,-550.1"/>
</g>
<!-- [root] root&#45;&gt;[root] provider[&quot;registry.terraform.io/hashicorp/aws&quot;] (close) -->
<g id="edge82" class="edge">
<title>[root] root&#45;&gt;[root] provider[&quot;registry.terraform.io/hashicorp/aws&quot;] (close)</title>
<path fill="none" stroke="black" d="M1569.44,-586.1C1488.17,-575.42 1329.67,-554.61 1216.96,-539.81"/>
<polygon fill="black" stroke="black" points="1217.26,-536.31 1206.89,-538.48 1216.35,-543.25 1217.26,-536.31"/>
</g>
<!-- [root] root&#45;&gt;[root] provider[&quot;registry.terraform.io/hashicorp/random&quot;] (close) -->
<g id="edge83" class="edge">
<title>[root] root&#45;&gt;[root] provider[&quot;registry.terraform.io/hashicorp/random&quot;] (close)</title>
<path fill="none" stroke="black" d="M1679.56,-590.75C1903.84,-581.98 2727.77,-549.78 3153.89,-533.13"/>
<polygon fill="black" stroke="black" points="3154.34,-536.61 3164.19,-532.72 3154.07,-529.62 3154.34,-536.61"/>
</g>
</g>
</svg>
